{
  "cities": [
    {
      "lat": "56°09'N",
      "lon": "10°13'E",
      "city": "Aarhus"
    },
    {
      "lat": "57°09'N",
      "lon": "2°07'W",
      "city": "Aberdeen"
    },
    {
      "lat": "5°19'N",
      "lon": "4°02'W",
      "city": "Abidjan"
    },
    {
      "lat": "24°28'N",
      "lon": "54°22'E",
      "city": "Abu Dhabi"
    },
    {
      "lat": "9°04'N",
      "lon": "7°29'E",
      "city": "Abuja"
    },
    {
      "lat": "16°52'N",
      "lon": "99°53'W",
      "city": "Acapulco"
    },
    {
      "lat": "5°33'N",
      "lon": "0°12'W",
      "city": "Accra"
    },
    {
      "lat": "51°53'N",
      "lon": "176°39'W",
      "city": "Adak"
    },
    {
      "lat": "25°04'S",
      "lon": "130°06'W",
      "city": "Adamstown"
    },
    {
      "lat": "37°00'N",
      "lon": "35°19'E",
      "city": "Adana"
    },
    {
      "lat": "9°02'N",
      "lon": "38°44'E",
      "city": "Addis Ababa"
    },
    {
      "lat": "34°56'S",
      "lon": "138°36'E",
      "city": "Adelaide"
    },
    {
      "lat": "30°26'N",
      "lon": "9°36'W",
      "city": "Agadir"
    },
    {
      "lat": "23°50'N",
      "lon": "91°16'E",
      "city": "Agartala"
    },
    {
      "lat": "27°11'N",
      "lon": "78°01'E",
      "city": "Agra"
    },
    {
      "lat": "21°53'N",
      "lon": "102°18'W",
      "city": "Aguascalientes"
    },
    {
      "lat": "23°02'N",
      "lon": "72°35'E",
      "city": "Ahmedabad"
    },
    {
      "lat": "39°43'N",
      "lon": "140°07'E",
      "city": "Akita"
    },
    {
      "lat": "65°41'N",
      "lon": "18°06'W",
      "city": "Akureyri"
    },
    {
      "lat": "24°12'N",
      "lon": "55°44'E",
      "city": "Al Ain"
    },
    {
      "lat": "10°01'N",
      "lon": "84°13'W",
      "city": "Alajuela"
    },
    {
      "lat": "35°07'N",
      "lon": "106°37'W",
      "city": "Albuquerque"
    },
    {
      "lat": "82°30'N",
      "lon": "62°20'W",
      "city": "Alert"
    },
    {
      "lat": "31°12'N",
      "lon": "29°55'E",
      "city": "Alexandria"
    },
    {
      "lat": "36°46'N",
      "lon": "3°13'E",
      "city": "Algiers"
    },
    {
      "lat": "38°20'N",
      "lon": "0°28'W",
      "city": "Alicante"
    },
    {
      "lat": "43°17'N",
      "lon": "76°54'E",
      "city": "Almaty"
    },
    {
      "lat": "36°50'N",
      "lon": "2°28'W",
      "city": "Almería"
    },
    {
      "lat": "19°03'S",
      "lon": "169°55'W",
      "city": "Alofi"
    },
    {
      "lat": "6°07'N",
      "lon": "100°22'E",
      "city": "Alor Setar"
    },
    {
      "lat": "69°58'N",
      "lon": "23°16'E",
      "city": "Alta"
    },
    {
      "lat": "3°42'S",
      "lon": "128°10'E",
      "city": "Ambon"
    },
    {
      "lat": "31°56'N",
      "lon": "35°56'E",
      "city": "Amman"
    },
    {
      "lat": "31°38'N",
      "lon": "74°52'E",
      "city": "Amritsar"
    },
    {
      "lat": "52°22'N",
      "lon": "4°54'E",
      "city": "Amsterdam"
    },
    {
      "lat": "64°44'N",
      "lon": "177°31'E",
      "city": "Anadyr"
    },
    {
      "lat": "61°13'N",
      "lon": "149°54'W",
      "city": "Anchorage"
    },
    {
      "lat": "42°30'N",
      "lon": "1°30'E",
      "city": "Andorra la Vella"
    },
    {
      "lat": "38°29'N",
      "lon": "27°13'W",
      "city": "Angra do Heroísmo"
    },
    {
      "lat": "39°56'N",
      "lon": "32°52'E",
      "city": "Ankara"
    },
    {
      "lat": "18°56'S",
      "lon": "47°31'E",
      "city": "Antananarivo"
    },
    {
      "lat": "23°39'S",
      "lon": "70°24'W",
      "city": "Antofagasta"
    },
    {
      "lat": "51°13'N",
      "lon": "4°24'E",
      "city": "Antwerp"
    },
    {
      "lat": "40°49'N",
      "lon": "140°45'E",
      "city": "Aomori"
    },
    {
      "lat": "13°50'S",
      "lon": "171°45'W",
      "city": "Apia"
    },
    {
      "lat": "10°55'S",
      "lon": "37°03'W",
      "city": "Aracaju"
    },
    {
      "lat": "34°05'N",
      "lon": "49°41'E",
      "city": "Arak"
    },
    {
      "lat": "21°48'S",
      "lon": "48°11'W",
      "city": "Araraquara"
    },
    {
      "lat": "36°11'N",
      "lon": "44°01'E",
      "city": "Arbil"
    },
    {
      "lat": "58°29'N",
      "lon": "8°47'E",
      "city": "Arendal"
    },
    {
      "lat": "16°24'S",
      "lon": "71°32'W",
      "city": "Arequipa"
    },
    {
      "lat": "18°29'S",
      "lon": "70°20'W",
      "city": "Arica"
    },
    {
      "lat": "64°32'N",
      "lon": "40°32'E",
      "city": "Arkhangelsk"
    },
    {
      "lat": "43°46'N",
      "lon": "142°22'E",
      "city": "Asahikawa"
    },
    {
      "lat": "37°56'N",
      "lon": "58°22'E",
      "city": "Ashgabat"
    },
    {
      "lat": "15°20'N",
      "lon": "38°56'E",
      "city": "Asmara"
    },
    {
      "lat": "22°40'S",
      "lon": "50°25'W",
      "city": "Assis"
    },
    {
      "lat": "51°10'N",
      "lon": "71°26'E",
      "city": "Astana"
    },
    {
      "lat": "25°17'S",
      "lon": "57°38'W",
      "city": "Asunción"
    },
    {
      "lat": "37°58'N",
      "lon": "23°43'E",
      "city": "Athena"
    },
    {
      "lat": "33°45'N",
      "lon": "84°23'W",
      "city": "Atlanta"
    },
    {
      "lat": "47°07'N",
      "lon": "51°53'E",
      "city": "Atyrau"
    },
    {
      "lat": "36°50'S",
      "lon": "174°44'E",
      "city": "Auckland"
    },
    {
      "lat": "44°19'N",
      "lon": "69°47'W",
      "city": "Augusta"
    },
    {
      "lat": "30°15'N",
      "lon": "97°45'W",
      "city": "Austin"
    },
    {
      "lat": "21°12'S",
      "lon": "159°46'W",
      "city": "Avarua"
    },
    {
      "lat": "42°02'N",
      "lon": "13°25'E",
      "city": "Avezzano"
    },
    {
      "lat": "13°10'S",
      "lon": "74°13'W",
      "city": "Ayacucho"
    },
    {
      "lat": "14°21'N",
      "lon": "100°34'E",
      "city": "Ayutthaya"
    },
    {
      "lat": "33°20'N",
      "lon": "44°26'E",
      "city": "Baghdad"
    },
    {
      "lat": "38°43'S",
      "lon": "62°16'W",
      "city": "Bahía Blanca"
    },
    {
      "lat": "40°24'N",
      "lon": "49°53'E",
      "city": "Baku"
    },
    {
      "lat": "1°16'S",
      "lon": "116°50'E",
      "city": "Balikpapan"
    },
    {
      "lat": "39°17'N",
      "lon": "76°37'W",
      "city": "Baltimore"
    },
    {
      "lat": "12°39'N",
      "lon": "8°00'W",
      "city": "Bamako"
    },
    {
      "lat": "5°33'N",
      "lon": "95°19'E",
      "city": "Banda Aceh"
    },
    {
      "lat": "4°53'N",
      "lon": "114°57'E",
      "city": "Bandar Seri Begawan"
    },
    {
      "lat": "6°55'S",
      "lon": "107°37'E",
      "city": "Bandung"
    },
    {
      "lat": "12°58'N",
      "lon": "77°34'E",
      "city": "Bangalore"
    },
    {
      "lat": "13°45'N",
      "lon": "100°28'E",
      "city": "Bangkok"
    },
    {
      "lat": "4°22'N",
      "lon": "18°35'E",
      "city": "Bangui"
    },
    {
      "lat": "13°27'N",
      "lon": "16°35'W",
      "city": "Banjul"
    },
    {
      "lat": "41°23'N",
      "lon": "2°11'E",
      "city": "Barcelona"
    },
    {
      "lat": "41°07'N",
      "lon": "16°52'E",
      "city": "Bari"
    },
    {
      "lat": "10°58'N",
      "lon": "74°48'W",
      "city": "Barranquilla"
    },
    {
      "lat": "71°18'N",
      "lon": "156°46'W",
      "city": "Barrow"
    },
    {
      "lat": "47°34'N",
      "lon": "7°36'E",
      "city": "Basel"
    },
    {
      "lat": "30°30'N",
      "lon": "47°49'E",
      "city": "Basra"
    },
    {
      "lat": "16°00'N",
      "lon": "61°44'W",
      "city": "Basse-Terre"
    },
    {
      "lat": "17°18'N",
      "lon": "62°44'W",
      "city": "Basseterre"
    },
    {
      "lat": "43°55'N",
      "lon": "69°49'W",
      "city": "Bath"
    },
    {
      "lat": "51°23'N",
      "lon": "2°22'W",
      "city": "Bath"
    },
    {
      "lat": "7°43'N",
      "lon": "81°42'E",
      "city": "Batticaloa"
    },
    {
      "lat": "22°19'S",
      "lon": "49°04'W",
      "city": "Bauru"
    },
    {
      "lat": "39°55'N",
      "lon": "116°23'E",
      "city": "Beijing"
    },
    {
      "lat": "33°53'N",
      "lon": "35°31'E",
      "city": "Beirut"
    },
    {
      "lat": "54°36'N",
      "lon": "5°56'W",
      "city": "Belfast"
    },
    {
      "lat": "44°49'N",
      "lon": "20°28'E",
      "city": "Belgrade"
    },
    {
      "lat": "17°30'N",
      "lon": "88°11'W",
      "city": "Belize City"
    },
    {
      "lat": "48°45'N",
      "lon": "122°29'W",
      "city": "Bellingham"
    },
    {
      "lat": "17°15'N",
      "lon": "88°46'W",
      "city": "Belmopan"
    },
    {
      "lat": "19°55'S",
      "lon": "43°56'W",
      "city": "Belo Horizonte"
    },
    {
      "lat": "71°32'N",
      "lon": "52°19'E",
      "city": "Belushya Guba"
    },
    {
      "lat": "1°27'S",
      "lon": "48°30'W",
      "city": "Belém"
    },
    {
      "lat": "32°07'N",
      "lon": "20°04'E",
      "city": "Benghazi"
    },
    {
      "lat": "6°19'N",
      "lon": "5°36'E",
      "city": "Benin City"
    },
    {
      "lat": "60°23'N",
      "lon": "5°20'E",
      "city": "Bergen"
    },
    {
      "lat": "52°31'N",
      "lon": "13°23'E",
      "city": "Berlin"
    },
    {
      "lat": "46°57'N",
      "lon": "7°27'E",
      "city": "Bern"
    },
    {
      "lat": "32°51'S",
      "lon": "27°26'E",
      "city": "Bhisho"
    },
    {
      "lat": "43°15'N",
      "lon": "2°55'W",
      "city": "Bilbao"
    },
    {
      "lat": "35°54'N",
      "lon": "14°28'E",
      "city": "Birkirkara"
    },
    {
      "lat": "33°39'N",
      "lon": "86°49'W",
      "city": "Birmingham"
    },
    {
      "lat": "52°29'N",
      "lon": "1°54'W",
      "city": "Birmingham"
    },
    {
      "lat": "42°52'N",
      "lon": "74°37'E",
      "city": "Bishkek"
    },
    {
      "lat": "46°49'N",
      "lon": "100°47'W",
      "city": "Bismarck"
    },
    {
      "lat": "11°51'N",
      "lon": "15°34'W",
      "city": "Bissau"
    },
    {
      "lat": "15°47'S",
      "lon": "35°00'E",
      "city": "Blantyre"
    },
    {
      "lat": "29°07'S",
      "lon": "26°13'E",
      "city": "Bloemfontein"
    },
    {
      "lat": "2°49'N",
      "lon": "60°40'W",
      "city": "Boa Vista"
    },
    {
      "lat": "11°11'N",
      "lon": "4°17'W",
      "city": "Bobo-Dioulasso"
    },
    {
      "lat": "65°50'N",
      "lon": "21°43'E",
      "city": "Boden"
    },
    {
      "lat": "67°18'N",
      "lon": "14°33'E",
      "city": "Bodø"
    },
    {
      "lat": "6°36'S",
      "lon": "106°48'E",
      "city": "Bogor"
    },
    {
      "lat": "4°36'N",
      "lon": "74°05'W",
      "city": "Bogotá"
    },
    {
      "lat": "43°37'N",
      "lon": "116°12'W",
      "city": "Boise"
    },
    {
      "lat": "44°30'N",
      "lon": "11°21'E",
      "city": "Bologna"
    },
    {
      "lat": "44°50'N",
      "lon": "0°35'W",
      "city": "Bordeaux"
    },
    {
      "lat": "42°21'N",
      "lon": "71°04'W",
      "city": "Boston"
    },
    {
      "lat": "40°01'N",
      "lon": "105°17'W",
      "city": "Boulder"
    },
    {
      "lat": "53°48'N",
      "lon": "1°45'W",
      "city": "Bradford"
    },
    {
      "lat": "41°33'N",
      "lon": "8°25'W",
      "city": "Braga"
    },
    {
      "lat": "15°48'S",
      "lon": "47°52'W",
      "city": "Brasília"
    },
    {
      "lat": "48°09'N",
      "lon": "17°07'E",
      "city": "Bratislava"
    },
    {
      "lat": "56°07'N",
      "lon": "101°36'E",
      "city": "Bratsk"
    },
    {
      "lat": "4°16'S",
      "lon": "15°18'E",
      "city": "Brazzaville"
    },
    {
      "lat": "53°05'N",
      "lon": "8°48'E",
      "city": "Bremen"
    },
    {
      "lat": "48°23'N",
      "lon": "4°29'W",
      "city": "Brest"
    },
    {
      "lat": "13°06'N",
      "lon": "59°37'W",
      "city": "Bridgetown"
    },
    {
      "lat": "50°50'N",
      "lon": "0°09'W",
      "city": "Brighton and Hove"
    },
    {
      "lat": "13°16'N",
      "lon": "16°39'W",
      "city": "Brikama"
    },
    {
      "lat": "27°28'S",
      "lon": "153°02'E",
      "city": "Brisbane"
    },
    {
      "lat": "51°27'N",
      "lon": "2°35'W",
      "city": "Bristol"
    },
    {
      "lat": "25°55'N",
      "lon": "97°29'W",
      "city": "Brownsville"
    },
    {
      "lat": "50°51'N",
      "lon": "4°21'E",
      "city": "Brussels"
    },
    {
      "lat": "44°26'N",
      "lon": "26°06'E",
      "city": "Bucharest"
    },
    {
      "lat": "47°28'N",
      "lon": "19°03'E",
      "city": "Budapest"
    },
    {
      "lat": "34°36'S",
      "lon": "58°23'W",
      "city": "Buenos Aires"
    },
    {
      "lat": "42°54'N",
      "lon": "78°51'W",
      "city": "Buffalo"
    },
    {
      "lat": "3°23'S",
      "lon": "29°22'E",
      "city": "Bujumbura"
    },
    {
      "lat": "20°10'S",
      "lon": "28°35'E",
      "city": "Bulawayo"
    },
    {
      "lat": "40°11'N",
      "lon": "29°03'E",
      "city": "Bursa"
    },
    {
      "lat": "35°11'N",
      "lon": "129°05'E",
      "city": "Busan"
    },
    {
      "lat": "22°53'N",
      "lon": "109°55'W",
      "city": "Cabo San Lucas"
    },
    {
      "lat": "39°15'N",
      "lon": "9°03'E",
      "city": "Cagliari"
    },
    {
      "lat": "16°56'S",
      "lon": "145°47'E",
      "city": "Cairns"
    },
    {
      "lat": "30°03'N",
      "lon": "31°14'E",
      "city": "Cairo"
    },
    {
      "lat": "50°57'N",
      "lon": "1°51'E",
      "city": "Calais"
    },
    {
      "lat": "22°28'S",
      "lon": "68°56'W",
      "city": "Calama"
    },
    {
      "lat": "51°03'N",
      "lon": "114°04'W",
      "city": "Calgary"
    },
    {
      "lat": "52°12'N",
      "lon": "0°07'E",
      "city": "Cambridge"
    },
    {
      "lat": "7°14'S",
      "lon": "35°53'W",
      "city": "Campina Grande"
    },
    {
      "lat": "22°54'S",
      "lon": "47°03'W",
      "city": "Campinas"
    },
    {
      "lat": "20°28'S",
      "lon": "54°37'W",
      "city": "Campo Grande"
    },
    {
      "lat": "35°18'S",
      "lon": "149°07'E",
      "city": "Canberra"
    },
    {
      "lat": "21°10'N",
      "lon": "86°51'W",
      "city": "Cancún"
    },
    {
      "lat": "43°33'N",
      "lon": "7°01'E",
      "city": "Cannes"
    },
    {
      "lat": "33°56'S",
      "lon": "18°25'E",
      "city": "Cape Town"
    },
    {
      "lat": "10°30'N",
      "lon": "66°55'W",
      "city": "Caracas"
    },
    {
      "lat": "51°29'N",
      "lon": "3°11'W",
      "city": "Cardiff"
    },
    {
      "lat": "10°24'N",
      "lon": "75°30'W",
      "city": "Cartagena"
    },
    {
      "lat": "8°17'S",
      "lon": "35°59'W",
      "city": "Caruaru"
    },
    {
      "lat": "33°32'N",
      "lon": "7°35'W",
      "city": "Casablanca"
    },
    {
      "lat": "14°01'N",
      "lon": "60°59'W",
      "city": "Castries"
    },
    {
      "lat": "37°30'N",
      "lon": "15°05'E",
      "city": "Catania"
    },
    {
      "lat": "4°55'N",
      "lon": "52°20'W",
      "city": "Cayenne"
    },
    {
      "lat": "10°17'N",
      "lon": "123°54'E",
      "city": "Cebu City"
    },
    {
      "lat": "10°30'N",
      "lon": "61°23'W",
      "city": "Chaguanas"
    },
    {
      "lat": "30°45'N",
      "lon": "76°47'E",
      "city": "Chandigarh"
    },
    {
      "lat": "43°54'N",
      "lon": "125°12'E",
      "city": "Changchun"
    },
    {
      "lat": "50°24'N",
      "lon": "4°26'E",
      "city": "Charleroi"
    },
    {
      "lat": "32°47'N",
      "lon": "79°56'W",
      "city": "Charleston"
    },
    {
      "lat": "38°21'N",
      "lon": "81°38'W",
      "city": "Charleston"
    },
    {
      "lat": "35°14'N",
      "lon": "80°51'W",
      "city": "Charlotte"
    },
    {
      "lat": "18°21'N",
      "lon": "64°57'W",
      "city": "Charlotte Amalie"
    },
    {
      "lat": "46°14'N",
      "lon": "63°09'W",
      "city": "Charlottetown"
    },
    {
      "lat": "55°09'N",
      "lon": "61°23'E",
      "city": "Chelyabinsk"
    },
    {
      "lat": "30°40'N",
      "lon": "104°04'E",
      "city": "Chengdu"
    },
    {
      "lat": "13°05'N",
      "lon": "80°16'E",
      "city": "Chennai (Madras)"
    },
    {
      "lat": "41°09'N",
      "lon": "104°48'W",
      "city": "Cheyenne"
    },
    {
      "lat": "18°48'N",
      "lon": "99°00'E",
      "city": "Chiang Mai"
    },
    {
      "lat": "19°55'N",
      "lon": "99°50'E",
      "city": "Chiang Rai"
    },
    {
      "lat": "35°36'N",
      "lon": "140°06'E",
      "city": "Chiba"
    },
    {
      "lat": "41°53'N",
      "lon": "87°38'W",
      "city": "Chicago"
    },
    {
      "lat": "28°38'N",
      "lon": "106°05'W",
      "city": "Chihuahua"
    },
    {
      "lat": "12°37'N",
      "lon": "87°09'W",
      "city": "Chinandega"
    },
    {
      "lat": "22°22'N",
      "lon": "91°48'E",
      "city": "Chittagong"
    },
    {
      "lat": "47°00'N",
      "lon": "28°55'E",
      "city": "Chişinău"
    },
    {
      "lat": "41°48'N",
      "lon": "129°47'E",
      "city": "Chongjin"
    },
    {
      "lat": "29°34'N",
      "lon": "106°34'E",
      "city": "Chongqing"
    },
    {
      "lat": "43°32'S",
      "lon": "172°37'E",
      "city": "Christchurch"
    },
    {
      "lat": "33°41'S",
      "lon": "53°27'W",
      "city": "Chuí"
    },
    {
      "lat": "39°06'N",
      "lon": "84°31'W",
      "city": "Cincinnati"
    },
    {
      "lat": "8°07'N",
      "lon": "63°33'W",
      "city": "Ciudad Bolívar"
    },
    {
      "lat": "25°31'S",
      "lon": "54°37'W",
      "city": "Ciudad del Este"
    },
    {
      "lat": "31°44'N",
      "lon": "106°29'W",
      "city": "Ciudad Juárez"
    },
    {
      "lat": "41°29'N",
      "lon": "81°40'W",
      "city": "Cleveland"
    },
    {
      "lat": "46°46'N",
      "lon": "23°35'E",
      "city": "Cluj-Napoca"
    },
    {
      "lat": "21°28'N",
      "lon": "71°08'W",
      "city": "Cockburn Town"
    },
    {
      "lat": "45°34'S",
      "lon": "72°04'W",
      "city": "Coihaique"
    },
    {
      "lat": "41°59'N",
      "lon": "82°56'W",
      "city": "Colchester"
    },
    {
      "lat": "50°56'N",
      "lon": "6°58'E",
      "city": "Cologne"
    },
    {
      "lat": "6°56'N",
      "lon": "79°51'E",
      "city": "Colombo"
    },
    {
      "lat": "34°00'N",
      "lon": "81°03'W",
      "city": "Columbia"
    },
    {
      "lat": "39°59'N",
      "lon": "82°59'W",
      "city": "Columbus"
    },
    {
      "lat": "45°52'S",
      "lon": "67°29'W",
      "city": "Comodoro Rivadavia"
    },
    {
      "lat": "9°31'N",
      "lon": "13°43'W",
      "city": "Conakry"
    },
    {
      "lat": "36°50'S",
      "lon": "73°03'W",
      "city": "Concepción"
    },
    {
      "lat": "43°12'N",
      "lon": "71°32'W",
      "city": "Concord"
    },
    {
      "lat": "75°06'S",
      "lon": "123°20'W",
      "city": "Concordia"
    },
    {
      "lat": "55°41'N",
      "lon": "12°34'E",
      "city": "Copenhagen"
    },
    {
      "lat": "27°22'S",
      "lon": "70°20'W",
      "city": "Copiapó"
    },
    {
      "lat": "51°54'N",
      "lon": "8°28'W",
      "city": "Cork"
    },
    {
      "lat": "27°44'N",
      "lon": "97°24'W",
      "city": "Corpus Christi"
    },
    {
      "lat": "27°29'S",
      "lon": "58°49'W",
      "city": "Corrientes"
    },
    {
      "lat": "6°22'N",
      "lon": "2°26'E",
      "city": "Cotonou"
    },
    {
      "lat": "52°24'N",
      "lon": "1°31'W",
      "city": "Coventry"
    },
    {
      "lat": "44°20'N",
      "lon": "23°49'E",
      "city": "Craiova"
    },
    {
      "lat": "15°36'S",
      "lon": "56°06'W",
      "city": "Cuiabá"
    },
    {
      "lat": "24°48'N",
      "lon": "107°23'W",
      "city": "Culiacán"
    },
    {
      "lat": "25°25'S",
      "lon": "49°15'W",
      "city": "Curitiba"
    },
    {
      "lat": "13°32'S",
      "lon": "71°58'W",
      "city": "Cusco"
    },
    {
      "lat": "31°25'S",
      "lon": "64°11'W",
      "city": "Córdoba"
    },
    {
      "lat": "7°54'N",
      "lon": "72°30'W",
      "city": "Cúcuta"
    },
    {
      "lat": "16°04'N",
      "lon": "108°14'E",
      "city": "Da Nang"
    },
    {
      "lat": "35°52'N",
      "lon": "128°36'E",
      "city": "Daegu"
    },
    {
      "lat": "14°42'N",
      "lon": "17°27'W",
      "city": "Dakar"
    },
    {
      "lat": "38°55'N",
      "lon": "121°38'E",
      "city": "Dalian"
    },
    {
      "lat": "32°47'N",
      "lon": "96°48'W",
      "city": "Dallas"
    },
    {
      "lat": "33°31'N",
      "lon": "36°18'E",
      "city": "Damascus"
    },
    {
      "lat": "26°17'N",
      "lon": "50°12'E",
      "city": "Dammam"
    },
    {
      "lat": "6°48'S",
      "lon": "39°17'E",
      "city": "Dar es Salaam"
    },
    {
      "lat": "12°27'S",
      "lon": "130°50'E",
      "city": "Darwin"
    },
    {
      "lat": "7°04'N",
      "lon": "125°36'E",
      "city": "Davao City"
    },
    {
      "lat": "70°12'N",
      "lon": "148°31'W",
      "city": "Deadhorse"
    },
    {
      "lat": "13°31'N",
      "lon": "144°50'E",
      "city": "Dededo"
    },
    {
      "lat": "8°39'S",
      "lon": "115°13'E",
      "city": "Denpasar"
    },
    {
      "lat": "39°44'N",
      "lon": "104°59'W",
      "city": "Denver"
    },
    {
      "lat": "52°55'N",
      "lon": "1°28'W",
      "city": "Derby"
    },
    {
      "lat": "55°00'N",
      "lon": "7°18'W",
      "city": "Derry"
    },
    {
      "lat": "41°35'N",
      "lon": "93°37'W",
      "city": "Des Moines"
    },
    {
      "lat": "42°20'N",
      "lon": "83°03'W",
      "city": "Detroit"
    },
    {
      "lat": "23°42'N",
      "lon": "90°23'E",
      "city": "Dhaka"
    },
    {
      "lat": "27°29'N",
      "lon": "95°00'E",
      "city": "Dibrugarh"
    },
    {
      "lat": "73°30'N",
      "lon": "80°31'E",
      "city": "Dikson"
    },
    {
      "lat": "8°33'S",
      "lon": "125°35'E",
      "city": "Dili"
    },
    {
      "lat": "11°35'N",
      "lon": "43°09'E",
      "city": "Djibouti"
    },
    {
      "lat": "48°24'N",
      "lon": "34°59'E",
      "city": "Dnipro"
    },
    {
      "lat": "6°10'S",
      "lon": "35°45'E",
      "city": "Dodoma"
    },
    {
      "lat": "25°17'N",
      "lon": "51°32'E",
      "city": "Doha"
    },
    {
      "lat": "48°00'N",
      "lon": "37°48'E",
      "city": "Donetsk"
    },
    {
      "lat": "23°02'N",
      "lon": "113°43'E",
      "city": "Dongguan"
    },
    {
      "lat": "51°31'N",
      "lon": "7°28'E",
      "city": "Dortmund"
    },
    {
      "lat": "4°03'N",
      "lon": "9°42'E",
      "city": "Douala"
    },
    {
      "lat": "54°09'N",
      "lon": "4°29'W",
      "city": "Douglas"
    },
    {
      "lat": "39°10'N",
      "lon": "75°32'W",
      "city": "Dover"
    },
    {
      "lat": "51°02'N",
      "lon": "13°44'E",
      "city": "Dresden"
    },
    {
      "lat": "44°38'N",
      "lon": "22°39'E",
      "city": "Drobeta Turnu Severin"
    },
    {
      "lat": "25°15'N",
      "lon": "55°18'E",
      "city": "Dubai"
    },
    {
      "lat": "53°21'N",
      "lon": "6°16'W",
      "city": "Dublin"
    },
    {
      "lat": "46°48'N",
      "lon": "92°06'W",
      "city": "Duluth"
    },
    {
      "lat": "56°28'N",
      "lon": "2°58'W",
      "city": "Dundee"
    },
    {
      "lat": "45°52'S",
      "lon": "170°30'E",
      "city": "Dunedin"
    },
    {
      "lat": "24°01'N",
      "lon": "104°40'W",
      "city": "Durango"
    },
    {
      "lat": "29°53'S",
      "lon": "31°03'E",
      "city": "Durban"
    },
    {
      "lat": "38°32'N",
      "lon": "68°47'E",
      "city": "Dushanbe"
    },
    {
      "lat": "51°14'N",
      "lon": "6°47'E",
      "city": "Düsseldorf"
    },
    {
      "lat": "55°57'N",
      "lon": "3°11'W",
      "city": "Edinburgh"
    },
    {
      "lat": "37°04'S",
      "lon": "12°19'W",
      "city": "Edinburgh of the Seven Seas"
    },
    {
      "lat": "53°32'N",
      "lon": "113°30'W",
      "city": "Edmonton"
    },
    {
      "lat": "29°33'N",
      "lon": "34°57'E",
      "city": "Eilat"
    },
    {
      "lat": "27°09'N",
      "lon": "13°12'W",
      "city": "El Aaiún"
    },
    {
      "lat": "32°38'N",
      "lon": "115°33'W",
      "city": "El Centro"
    },
    {
      "lat": "31°47'N",
      "lon": "106°25'W",
      "city": "El Paso"
    },
    {
      "lat": "52°13'N",
      "lon": "6°54'E",
      "city": "Enschede"
    },
    {
      "lat": "31°51'N",
      "lon": "116°36'W",
      "city": "Ensenada"
    },
    {
      "lat": "0°03'N",
      "lon": "32°28'E",
      "city": "Entebbe"
    },
    {
      "lat": "6°27'N",
      "lon": "7°31'E",
      "city": "Enugu"
    },
    {
      "lat": "50°59'N",
      "lon": "11°02'E",
      "city": "Erfurt"
    },
    {
      "lat": "55°29'N",
      "lon": "8°27'E",
      "city": "Esbjerg"
    },
    {
      "lat": "39°47'N",
      "lon": "30°31'E",
      "city": "Eskisehir"
    },
    {
      "lat": "63°24'S",
      "lon": "56°59'W",
      "city": "Esperanza"
    },
    {
      "lat": "60°12'N",
      "lon": "24°39'E",
      "city": "Espoo"
    },
    {
      "lat": "40°48'N",
      "lon": "124°09'W",
      "city": "Eureka"
    },
    {
      "lat": "79°59'N",
      "lon": "85°56'W",
      "city": "Eureka"
    },
    {
      "lat": "50°43'N",
      "lon": "3°32'W",
      "city": "Exeter"
    },
    {
      "lat": "64°51'N",
      "lon": "147°43'W",
      "city": "Fairbanks"
    },
    {
      "lat": "31°25'N",
      "lon": "73°05'E",
      "city": "Faisalabad"
    },
    {
      "lat": "3°51'S",
      "lon": "32°25'W",
      "city": "Fernando de Noronha"
    },
    {
      "lat": "54°47'N",
      "lon": "9°26'E",
      "city": "Flensburg"
    },
    {
      "lat": "43°47'N",
      "lon": "11°15'E",
      "city": "Florence"
    },
    {
      "lat": "39°28'N",
      "lon": "31°14'W",
      "city": "Flores Island"
    },
    {
      "lat": "27°50'S",
      "lon": "48°25'W",
      "city": "Florianópolis"
    },
    {
      "lat": "42°56'N",
      "lon": "10°46'E",
      "city": "Follonica"
    },
    {
      "lat": "39°48'N",
      "lon": "74°06'W",
      "city": "Forked River"
    },
    {
      "lat": "56°44'N",
      "lon": "111°23'W",
      "city": "Fort McMurray"
    },
    {
      "lat": "41°05'N",
      "lon": "85°08'W",
      "city": "Fort Wayne"
    },
    {
      "lat": "14°36'N",
      "lon": "61°05'W",
      "city": "Fort-de-France"
    },
    {
      "lat": "3°43'S",
      "lon": "38°33'W",
      "city": "Fortaleza"
    },
    {
      "lat": "21°10'S",
      "lon": "27°31'E",
      "city": "Francistown"
    },
    {
      "lat": "50°07'N",
      "lon": "8°41'E",
      "city": "Frankfurt am Main"
    },
    {
      "lat": "45°57'N",
      "lon": "66°40'W",
      "city": "Fredericton"
    },
    {
      "lat": "8°29'N",
      "lon": "13°14'W",
      "city": "Freetown"
    },
    {
      "lat": "59°46'N",
      "lon": "151°13'W",
      "city": "Fritz Creek"
    },
    {
      "lat": "36°04'N",
      "lon": "136°13'E",
      "city": "Fukui"
    },
    {
      "lat": "33°35'N",
      "lon": "130°24'E",
      "city": "Fukuoka"
    },
    {
      "lat": "37°46'N",
      "lon": "140°28'E",
      "city": "Fukushima"
    },
    {
      "lat": "8°31'S",
      "lon": "179°13'E",
      "city": "Funafuti"
    },
    {
      "lat": "32°39'N",
      "lon": "16°55'W",
      "city": "Funchal"
    },
    {
      "lat": "24°39'S",
      "lon": "25°55'E",
      "city": "Gaborone"
    },
    {
      "lat": "27°20'N",
      "lon": "88°37'E",
      "city": "Gangtok"
    },
    {
      "lat": "8°53'S",
      "lon": "36°30'W",
      "city": "Garanhuns"
    },
    {
      "lat": "31°31'N",
      "lon": "34°27'E",
      "city": "Gaza"
    },
    {
      "lat": "37°04'N",
      "lon": "37°23'E",
      "city": "Gaziantep"
    },
    {
      "lat": "54°22'N",
      "lon": "18°38'E",
      "city": "Gdańsk"
    },
    {
      "lat": "54°30'N",
      "lon": "18°33'E",
      "city": "Gdynia"
    },
    {
      "lat": "38°09'S",
      "lon": "144°21'E",
      "city": "Geelong"
    },
    {
      "lat": "46°12'N",
      "lon": "6°09'E",
      "city": "Geneva"
    },
    {
      "lat": "44°24'N",
      "lon": "8°55'E",
      "city": "Genoa"
    },
    {
      "lat": "5°25'N",
      "lon": "100°19'E",
      "city": "George Town"
    },
    {
      "lat": "19°18'N",
      "lon": "81°23'W",
      "city": "George Town"
    },
    {
      "lat": "6°48'N",
      "lon": "58°10'W",
      "city": "Georgetown"
    },
    {
      "lat": "51°03'N",
      "lon": "3°44'E",
      "city": "Ghent"
    },
    {
      "lat": "36°08'N",
      "lon": "5°21'W",
      "city": "Gibraltar"
    },
    {
      "lat": "35°25'N",
      "lon": "136°46'E",
      "city": "Gifu"
    },
    {
      "lat": "43°32'N",
      "lon": "5°39'W",
      "city": "Gijón"
    },
    {
      "lat": "55°51'N",
      "lon": "4°16'W",
      "city": "Glasgow"
    },
    {
      "lat": "51°52'N",
      "lon": "2°14'W",
      "city": "Gloucester"
    },
    {
      "lat": "16°40'S",
      "lon": "49°15'W",
      "city": "Goiânia"
    },
    {
      "lat": "28°01'S",
      "lon": "153°24'E",
      "city": "Gold Coast"
    },
    {
      "lat": "52°26'N",
      "lon": "30°59'E",
      "city": "Gomel"
    },
    {
      "lat": "57°42'N",
      "lon": "11°58'E",
      "city": "Gothenburg"
    },
    {
      "lat": "18°51'S",
      "lon": "41°56'W",
      "city": "Governador Valadares"
    },
    {
      "lat": "55°10'N",
      "lon": "118°48'W",
      "city": "Grande Prairie"
    },
    {
      "lat": "47°04'N",
      "lon": "15°26'E",
      "city": "Graz"
    },
    {
      "lat": "51°29'N",
      "lon": "0°00'E/W",
      "city": "Greenwich"
    },
    {
      "lat": "76°25'N",
      "lon": "82°54'W",
      "city": "Grise Fiord"
    },
    {
      "lat": "53°13'N",
      "lon": "6°33'E",
      "city": "Groningen"
    },
    {
      "lat": "54°17'S",
      "lon": "36°30'W",
      "city": "Grytviken"
    },
    {
      "lat": "20°40'N",
      "lon": "103°21'W",
      "city": "Guadalajara"
    },
    {
      "lat": "23°08'N",
      "lon": "113°16'E",
      "city": "Guangzhou"
    },
    {
      "lat": "14°37'N",
      "lon": "90°32'W",
      "city": "Guatemala City"
    },
    {
      "lat": "2°11'S",
      "lon": "79°53'W",
      "city": "Guayaquil"
    },
    {
      "lat": "26°11'N",
      "lon": "91°44'E",
      "city": "Guwahati"
    },
    {
      "lat": "19°27'S",
      "lon": "29°48'E",
      "city": "Gweru"
    },
    {
      "lat": "67°08'N",
      "lon": "20°40'E",
      "city": "Gällivare"
    },
    {
      "lat": "52°23'N",
      "lon": "4°38'E",
      "city": "Haarlem"
    },
    {
      "lat": "13°29'N",
      "lon": "144°45'E",
      "city": "Hagåtña"
    },
    {
      "lat": "20°51'N",
      "lon": "106°41'E",
      "city": "Hai Phong"
    },
    {
      "lat": "20°04'N",
      "lon": "110°34'E",
      "city": "Haikou"
    },
    {
      "lat": "41°46'N",
      "lon": "140°44'E",
      "city": "Hakodate"
    },
    {
      "lat": "44°51'N",
      "lon": "63°12'W",
      "city": "Halifax"
    },
    {
      "lat": "38°28'N",
      "lon": "23°36'E",
      "city": "Halkida"
    },
    {
      "lat": "53°34'N",
      "lon": "10°00'E",
      "city": "Hamburg"
    },
    {
      "lat": "37°47'S",
      "lon": "175°17'E",
      "city": "Hamilton"
    },
    {
      "lat": "32°18'N",
      "lon": "64°47'W",
      "city": "Hamilton"
    },
    {
      "lat": "70°40'N",
      "lon": "23°41'E",
      "city": "Hammerfest"
    },
    {
      "lat": "36°36'N",
      "lon": "114°29'E",
      "city": "Handan"
    },
    {
      "lat": "27°09'S",
      "lon": "109°26'W",
      "city": "Hanga Roa"
    },
    {
      "lat": "30°15'N",
      "lon": "120°10'E",
      "city": "Hangzhou"
    },
    {
      "lat": "52°22'N",
      "lon": "9°43'E",
      "city": "Hannover"
    },
    {
      "lat": "21°02'N",
      "lon": "105°51'E",
      "city": "Hanoi"
    },
    {
      "lat": "65°50'N",
      "lon": "24°08'E",
      "city": "Haparanda"
    },
    {
      "lat": "17°52'S",
      "lon": "31°02'E",
      "city": "Harare"
    },
    {
      "lat": "45°45'N",
      "lon": "126°38'E",
      "city": "Harbin"
    },
    {
      "lat": "9°34'N",
      "lon": "44°04'E",
      "city": "Hargeisa"
    },
    {
      "lat": "68°47'N",
      "lon": "16°32'E",
      "city": "Harstad"
    },
    {
      "lat": "41°46'N",
      "lon": "72°40'W",
      "city": "Hartford"
    },
    {
      "lat": "39°39'S",
      "lon": "176°50'E",
      "city": "Hastings"
    },
    {
      "lat": "7°01'N",
      "lon": "100°28'E",
      "city": "Hat Yai"
    },
    {
      "lat": "23°08'N",
      "lon": "82°23'W",
      "city": "Havana"
    },
    {
      "lat": "46°36'N",
      "lon": "112°02'W",
      "city": "Helena"
    },
    {
      "lat": "60°10'N",
      "lon": "24°56'E",
      "city": "Helsinki"
    },
    {
      "lat": "35°20'N",
      "lon": "25°08'E",
      "city": "Heraklion"
    },
    {
      "lat": "29°06'N",
      "lon": "110°57'W",
      "city": "Hermosillo"
    },
    {
      "lat": "19°42'N",
      "lon": "155°05'W",
      "city": "Hilo"
    },
    {
      "lat": "34°23'N",
      "lon": "132°27'E",
      "city": "Hiroshima"
    },
    {
      "lat": "10°46'N",
      "lon": "106°41'E",
      "city": "Ho Chi Minh City"
    },
    {
      "lat": "42°53'S",
      "lon": "147°20'E",
      "city": "Hobart"
    },
    {
      "lat": "22°17'N",
      "lon": "114°10'E",
      "city": "Hong Kong"
    },
    {
      "lat": "9°28'S",
      "lon": "159°49'E",
      "city": "Honiara"
    },
    {
      "lat": "70°59'N",
      "lon": "25°59'E",
      "city": "Honningsvåg"
    },
    {
      "lat": "21°19'N",
      "lon": "157°50'W",
      "city": "Honolulu"
    },
    {
      "lat": "38°35'N",
      "lon": "28°43'W",
      "city": "Horta"
    },
    {
      "lat": "29°46'N",
      "lon": "95°23'W",
      "city": "Houston"
    },
    {
      "lat": "12°46'S",
      "lon": "15°44'E",
      "city": "Huambo"
    },
    {
      "lat": "16°28'N",
      "lon": "107°35'E",
      "city": "Huế"
    },
    {
      "lat": "17°22'N",
      "lon": "78°29'E",
      "city": "Hyderabad"
    },
    {
      "lat": "25°23'N",
      "lon": "68°22'E",
      "city": "Hyderabad"
    },
    {
      "lat": "7°24'N",
      "lon": "3°55'E",
      "city": "Ibadan"
    },
    {
      "lat": "38°59'N",
      "lon": "1°26'E",
      "city": "Ibiza"
    },
    {
      "lat": "14°47'S",
      "lon": "39°03'W",
      "city": "Ilhéus"
    },
    {
      "lat": "10°43'N",
      "lon": "122°34'E",
      "city": "Iloilo City"
    },
    {
      "lat": "5°32'S",
      "lon": "47°29'W",
      "city": "Imperatriz"
    },
    {
      "lat": "37°29'N",
      "lon": "126°38'E",
      "city": "Incheon"
    },
    {
      "lat": "39°46'N",
      "lon": "86°09'W",
      "city": "Indianapolis"
    },
    {
      "lat": "47°16'N",
      "lon": "11°23'E",
      "city": "Innsbruck"
    },
    {
      "lat": "68°21'N",
      "lon": "133°43'W",
      "city": "Inuvik"
    },
    {
      "lat": "46°25'S",
      "lon": "168°21'E",
      "city": "Invercargill"
    },
    {
      "lat": "57°28'N",
      "lon": "4°14'W",
      "city": "Inverness"
    },
    {
      "lat": "4°36'N",
      "lon": "101°04'E",
      "city": "Ipoh"
    },
    {
      "lat": "63°45'N",
      "lon": "68°31'W",
      "city": "Iqaluit"
    },
    {
      "lat": "20°13'S",
      "lon": "70°09'W",
      "city": "Iquique"
    },
    {
      "lat": "3°44'S",
      "lon": "73°15'W",
      "city": "Iquitos"
    },
    {
      "lat": "52°19'N",
      "lon": "104°18'E",
      "city": "Irkutsk"
    },
    {
      "lat": "32°38'N",
      "lon": "51°39'E",
      "city": "Isfahan"
    },
    {
      "lat": "33°43'N",
      "lon": "73°04'E",
      "city": "Islamabad"
    },
    {
      "lat": "41°01'N",
      "lon": "28°57'E",
      "city": "Istanbul"
    },
    {
      "lat": "56°50'N",
      "lon": "53°11'E",
      "city": "Izhevsk"
    },
    {
      "lat": "38°26'N",
      "lon": "27°09'E",
      "city": "İzmir"
    },
    {
      "lat": "32°18'N",
      "lon": "90°11'W",
      "city": "Jackson"
    },
    {
      "lat": "30°20'N",
      "lon": "81°40'W",
      "city": "Jacksonville"
    },
    {
      "lat": "9°40'N",
      "lon": "80°00'E",
      "city": "Jaffna"
    },
    {
      "lat": "26°56'N",
      "lon": "75°49'E",
      "city": "Jaipur"
    },
    {
      "lat": "6°12'S",
      "lon": "106°48'E",
      "city": "Jakarta"
    },
    {
      "lat": "15°55'S",
      "lon": "5°43'W",
      "city": "Jamestown"
    },
    {
      "lat": "2°32'S",
      "lon": "140°43'E",
      "city": "Jayapura"
    },
    {
      "lat": "21°33'N",
      "lon": "39°10'E",
      "city": "Jeddah"
    },
    {
      "lat": "40°43'N",
      "lon": "74°04'W",
      "city": "Jersey City"
    },
    {
      "lat": "31°47'N",
      "lon": "35°13'E",
      "city": "Jerusalem"
    },
    {
      "lat": "36°40'N",
      "lon": "116°59'E",
      "city": "Jinan"
    },
    {
      "lat": "26°12'S",
      "lon": "28°03'E",
      "city": "Johannesburg"
    },
    {
      "lat": "1°29'N",
      "lon": "103°44'E",
      "city": "Johor Bahru"
    },
    {
      "lat": "7°05'S",
      "lon": "34°50'W",
      "city": "João Pessoa"
    },
    {
      "lat": "7°12'S",
      "lon": "39°20'W",
      "city": "Juazeiro do Norte"
    },
    {
      "lat": "4°51'N",
      "lon": "31°36'E",
      "city": "Juba"
    },
    {
      "lat": "21°46'S",
      "lon": "43°21'W",
      "city": "Juiz de Fora"
    },
    {
      "lat": "58°18'N",
      "lon": "134°25'W",
      "city": "Juneau"
    },
    {
      "lat": "62°15'N",
      "lon": "25°45'E",
      "city": "Jyväskylä"
    },
    {
      "lat": "34°32'N",
      "lon": "69°10'E",
      "city": "Kabul"
    },
    {
      "lat": "37°58'N",
      "lon": "126°33'E",
      "city": "Kaesong"
    },
    {
      "lat": "31°36'N",
      "lon": "130°33'E",
      "city": "Kagoshima"
    },
    {
      "lat": "54°43'N",
      "lon": "20°31'E",
      "city": "Kaliningrad"
    },
    {
      "lat": "50°41'N",
      "lon": "120°20'W",
      "city": "Kamloops"
    },
    {
      "lat": "0°19'N",
      "lon": "32°35'E",
      "city": "Kampala"
    },
    {
      "lat": "36°34'N",
      "lon": "136°39'E",
      "city": "Kanazawa"
    },
    {
      "lat": "31°37'N",
      "lon": "65°43'E",
      "city": "Kandahar"
    },
    {
      "lat": "7°18'N",
      "lon": "80°38'E",
      "city": "Kandy"
    },
    {
      "lat": "12°00'N",
      "lon": "8°31'E",
      "city": "Kano"
    },
    {
      "lat": "26°28'N",
      "lon": "80°20'E",
      "city": "Kanpur"
    },
    {
      "lat": "39°06'N",
      "lon": "94°35'W",
      "city": "Kansas City"
    },
    {
      "lat": "22°38'N",
      "lon": "120°16'E",
      "city": "Kaohsiung"
    },
    {
      "lat": "24°52'N",
      "lon": "67°01'E",
      "city": "Karachi"
    },
    {
      "lat": "32°37'N",
      "lon": "41°02'E",
      "city": "Karbala"
    },
    {
      "lat": "27°42'N",
      "lon": "85°20'E",
      "city": "Kathmandu"
    },
    {
      "lat": "35°31'N",
      "lon": "139°42'E",
      "city": "Kawasaki"
    },
    {
      "lat": "55°47'N",
      "lon": "49°08'E",
      "city": "Kazan"
    },
    {
      "lat": "49°53'N",
      "lon": "119°30'W",
      "city": "Kelowna"
    },
    {
      "lat": "65°44'N",
      "lon": "24°34'E",
      "city": "Kemi"
    },
    {
      "lat": "66°43'N",
      "lon": "27°26'E",
      "city": "Kemijärvi"
    },
    {
      "lat": "24°34'N",
      "lon": "81°47'W",
      "city": "Key West"
    },
    {
      "lat": "50°00'N",
      "lon": "36°14'E",
      "city": "Kharkiv"
    },
    {
      "lat": "15°38'N",
      "lon": "32°32'E",
      "city": "Khartoum"
    },
    {
      "lat": "16°26'N",
      "lon": "102°50'E",
      "city": "Khon Kaen"
    },
    {
      "lat": "54°20'N",
      "lon": "10°08'E",
      "city": "Kiel"
    },
    {
      "lat": "50°27'N",
      "lon": "30°31'E",
      "city": "Kiev"
    },
    {
      "lat": "1°57'S",
      "lon": "30°04'E",
      "city": "Kigali"
    },
    {
      "lat": "28°45'S",
      "lon": "24°46'E",
      "city": "Kimberley"
    },
    {
      "lat": "29°04'S",
      "lon": "167°58'E",
      "city": "Kingston"
    },
    {
      "lat": "17°59'N",
      "lon": "76°48'W",
      "city": "Kingston"
    },
    {
      "lat": "13°09'N",
      "lon": "61°14'W",
      "city": "Kingstown"
    },
    {
      "lat": "4°20'S",
      "lon": "15°19'E",
      "city": "Kinshasa"
    },
    {
      "lat": "69°43'N",
      "lon": "30°02'E",
      "city": "Kirkenes"
    },
    {
      "lat": "35°28'N",
      "lon": "44°19'E",
      "city": "Kirkuk"
    },
    {
      "lat": "67°51'N",
      "lon": "20°13'E",
      "city": "Kiruna"
    },
    {
      "lat": "0°21'S",
      "lon": "42°33'E",
      "city": "Kismayo"
    },
    {
      "lat": "35°58'N",
      "lon": "83°57'W",
      "city": "Knoxville"
    },
    {
      "lat": "9°58'N",
      "lon": "76°17'E",
      "city": "Kochi"
    },
    {
      "lat": "22°34'N",
      "lon": "88°22'E",
      "city": "Kolkata (Calcutta)"
    },
    {
      "lat": "37°52'N",
      "lon": "32°29'E",
      "city": "Konya"
    },
    {
      "lat": "7°22'N",
      "lon": "134°29'E",
      "city": "Koror"
    },
    {
      "lat": "6°08'N",
      "lon": "102°15'E",
      "city": "Kota Bharu"
    },
    {
      "lat": "5°58'N",
      "lon": "116°06'E",
      "city": "Kota Kinabalu"
    },
    {
      "lat": "12°52'N",
      "lon": "7°34'W",
      "city": "Koulikoro"
    },
    {
      "lat": "50°04'N",
      "lon": "19°56'E",
      "city": "Kraków"
    },
    {
      "lat": "45°02'N",
      "lon": "38°58'E",
      "city": "Krasnodar"
    },
    {
      "lat": "56°01'N",
      "lon": "93°04'E",
      "city": "Krasnoyarsk"
    },
    {
      "lat": "58°10'N",
      "lon": "8°00'E",
      "city": "Kristiansand"
    },
    {
      "lat": "3°09'N",
      "lon": "101°42'E",
      "city": "Kuala Lumpur"
    },
    {
      "lat": "1°34'N",
      "lon": "110°21'E",
      "city": "Kuching"
    },
    {
      "lat": "25°19'N",
      "lon": "79°38'E",
      "city": "Kulpahar"
    },
    {
      "lat": "32°47'N",
      "lon": "130°44'E",
      "city": "Kumamoto"
    },
    {
      "lat": "6°40'N",
      "lon": "1°37'W",
      "city": "Kumasi"
    },
    {
      "lat": "25°04'N",
      "lon": "102°41'E",
      "city": "Kunming"
    },
    {
      "lat": "62°54'N",
      "lon": "27°41'E",
      "city": "Kuopio"
    },
    {
      "lat": "42°59'N",
      "lon": "144°23'E",
      "city": "Kushiro"
    },
    {
      "lat": "65°58'N",
      "lon": "29°11'E",
      "city": "Kuusamo"
    },
    {
      "lat": "29°22'N",
      "lon": "47°59'E",
      "city": "Kuwait City"
    },
    {
      "lat": "35°01'N",
      "lon": "135°46'E",
      "city": "Kyoto"
    },
    {
      "lat": "34°41'N",
      "lon": "135°12'E",
      "city": "Kōbe"
    },
    {
      "lat": "33°34'N",
      "lon": "133°32'E",
      "city": "Kōchi"
    },
    {
      "lat": "35°40'N",
      "lon": "138°34'E",
      "city": "Kōfu"
    },
    {
      "lat": "16°30'S",
      "lon": "68°09'W",
      "city": "La Paz"
    },
    {
      "lat": "29°54'S",
      "lon": "71°15'W",
      "city": "La Serena"
    },
    {
      "lat": "16°26'S",
      "lon": "179°22'E",
      "city": "Labasa"
    },
    {
      "lat": "6°27'N",
      "lon": "3°24'E",
      "city": "Lagos"
    },
    {
      "lat": "31°33'N",
      "lon": "74°21'E",
      "city": "Lahore"
    },
    {
      "lat": "60°59'N",
      "lon": "25°39'E",
      "city": "Lahti"
    },
    {
      "lat": "54°03'N",
      "lon": "2°48'W",
      "city": "Lancaster"
    },
    {
      "lat": "36°02'N",
      "lon": "103°48'E",
      "city": "Lanzhou"
    },
    {
      "lat": "28°09'N",
      "lon": "15°25'W",
      "city": "Las Palmas de Gran Canaria"
    },
    {
      "lat": "36°11'N",
      "lon": "115°08'W",
      "city": "Las Vegas"
    },
    {
      "lat": "35°31'N",
      "lon": "35°47'E",
      "city": "Latakia"
    },
    {
      "lat": "41°26'S",
      "lon": "147°08'E",
      "city": "Launceston, Tasmania"
    },
    {
      "lat": "46°31'N",
      "lon": "6°38'E",
      "city": "Lausanne"
    },
    {
      "lat": "49°29'N",
      "lon": "0°06'E",
      "city": "Le Havre"
    },
    {
      "lat": "53°48'N",
      "lon": "1°33'W",
      "city": "Leeds"
    },
    {
      "lat": "52°38'N",
      "lon": "1°08'W",
      "city": "Leicester"
    },
    {
      "lat": "52°10'N",
      "lon": "4°29'E",
      "city": "Leiden"
    },
    {
      "lat": "51°20'N",
      "lon": "12°23'E",
      "city": "Leipzig"
    },
    {
      "lat": "60°15'N",
      "lon": "1°15'W",
      "city": "Lerwick"
    },
    {
      "lat": "21°07'N",
      "lon": "101°41'W",
      "city": "León"
    },
    {
      "lat": "29°39'N",
      "lon": "91°06'E",
      "city": "Lhasa"
    },
    {
      "lat": "10°38'N",
      "lon": "85°26'W",
      "city": "Liberia"
    },
    {
      "lat": "0°23'N",
      "lon": "9°27'E",
      "city": "Libreville"
    },
    {
      "lat": "50°38'N",
      "lon": "3°03'E",
      "city": "Lille"
    },
    {
      "lat": "61°08'N",
      "lon": "10°26'E",
      "city": "Lillehammer"
    },
    {
      "lat": "13°59'S",
      "lon": "33°47'E",
      "city": "Lilongwe"
    },
    {
      "lat": "12°03'S",
      "lon": "77°02'W",
      "city": "Lima"
    },
    {
      "lat": "9°59'N",
      "lon": "83°02'W",
      "city": "Limón"
    },
    {
      "lat": "40°49'N",
      "lon": "96°41'W",
      "city": "Lincoln"
    },
    {
      "lat": "58°24'N",
      "lon": "15°37'E",
      "city": "Linköping"
    },
    {
      "lat": "48°18'N",
      "lon": "14°17'E",
      "city": "Linz"
    },
    {
      "lat": "38°43'N",
      "lon": "9°08'W",
      "city": "Lisbon"
    },
    {
      "lat": "34°44'N",
      "lon": "92°20'W",
      "city": "Little Rock"
    },
    {
      "lat": "53°24'N",
      "lon": "2°59'W",
      "city": "Liverpool"
    },
    {
      "lat": "17°51'S",
      "lon": "25°52'E",
      "city": "Livingstone"
    },
    {
      "lat": "46°03'N",
      "lon": "14°31'E",
      "city": "Ljubljana"
    },
    {
      "lat": "41°37'N",
      "lon": "0°38'E",
      "city": "Lleida"
    },
    {
      "lat": "26°25'S",
      "lon": "31°10'E",
      "city": "Lobamba"
    },
    {
      "lat": "6°08'N",
      "lon": "1°13'E",
      "city": "Lomé"
    },
    {
      "lat": "42°59'N",
      "lon": "81°15'W",
      "city": "London"
    },
    {
      "lat": "51°30'N",
      "lon": "0°08'W",
      "city": "London"
    },
    {
      "lat": "78°13'N",
      "lon": "15°39'E",
      "city": "Longyearbyen"
    },
    {
      "lat": "35°53'N",
      "lon": "106°18'W",
      "city": "Los Alamos"
    },
    {
      "lat": "34°03'N",
      "lon": "118°15'W",
      "city": "Los Angeles"
    },
    {
      "lat": "38°15'N",
      "lon": "85°46'W",
      "city": "Louisville"
    },
    {
      "lat": "8°50'S",
      "lon": "13°14'E",
      "city": "Luanda"
    },
    {
      "lat": "11°40'S",
      "lon": "27°28'E",
      "city": "Lubumbashi"
    },
    {
      "lat": "26°51'N",
      "lon": "80°57'E",
      "city": "Lucknow"
    },
    {
      "lat": "30°55'N",
      "lon": "75°51'E",
      "city": "Ludhiana"
    },
    {
      "lat": "65°35'N",
      "lon": "22°09'E",
      "city": "Luleå"
    },
    {
      "lat": "15°25'S",
      "lon": "28°17'E",
      "city": "Lusaka"
    },
    {
      "lat": "49°37'N",
      "lon": "6°07'E",
      "city": "Luxembourg"
    },
    {
      "lat": "25°41'N",
      "lon": "32°39'E",
      "city": "Luxor"
    },
    {
      "lat": "49°51'N",
      "lon": "24°01'E",
      "city": "Lviv"
    },
    {
      "lat": "45°46'N",
      "lon": "4°51'E",
      "city": "Lyon"
    },
    {
      "lat": "50°51'N",
      "lon": "5°41'E",
      "city": "Maastricht"
    },
    {
      "lat": "0°02'N",
      "lon": "51°04'W",
      "city": "Macapá"
    },
    {
      "lat": "22°10'N",
      "lon": "113°33'E",
      "city": "Macau"
    },
    {
      "lat": "9°40'S",
      "lon": "35°44'W",
      "city": "Maceió"
    },
    {
      "lat": "40°23'N",
      "lon": "3°43'W",
      "city": "Madrid"
    },
    {
      "lat": "36°23'N",
      "lon": "139°04'E",
      "city": "Maebashi"
    },
    {
      "lat": "25°51'S",
      "lon": "25°38'E",
      "city": "Mafikeng"
    },
    {
      "lat": "59°34'N",
      "lon": "150°48'E",
      "city": "Magadan"
    },
    {
      "lat": "7°04'N",
      "lon": "171°16'E",
      "city": "Majuro"
    },
    {
      "lat": "5°08'S",
      "lon": "119°25'E",
      "city": "Makassar"
    },
    {
      "lat": "14°33'N",
      "lon": "121°02'E",
      "city": "Makati"
    },
    {
      "lat": "3°45'N",
      "lon": "8°47'E",
      "city": "Malabo"
    },
    {
      "lat": "2°12'N",
      "lon": "102°15'E",
      "city": "Malacca Town"
    },
    {
      "lat": "7°59'S",
      "lon": "112°37'E",
      "city": "Malang"
    },
    {
      "lat": "55°35'N",
      "lon": "13°02'E",
      "city": "Malmö"
    },
    {
      "lat": "4°11'N",
      "lon": "73°31'E",
      "city": "Malé"
    },
    {
      "lat": "12°47'S",
      "lon": "45°14'E",
      "city": "Mamoudzou"
    },
    {
      "lat": "12°08'N",
      "lon": "86°15'W",
      "city": "Managua"
    },
    {
      "lat": "26°13'N",
      "lon": "50°35'E",
      "city": "Manama"
    },
    {
      "lat": "3°06'S",
      "lon": "60°01'W",
      "city": "Manaus"
    },
    {
      "lat": "53°28'N",
      "lon": "2°14'W",
      "city": "Manchester"
    },
    {
      "lat": "32°32'S",
      "lon": "115°43'E",
      "city": "Mandurah"
    },
    {
      "lat": "14°35'N",
      "lon": "120°58'E",
      "city": "Manila"
    },
    {
      "lat": "26°29'S",
      "lon": "31°22'E",
      "city": "Manzini"
    },
    {
      "lat": "25°58'S",
      "lon": "32°35'E",
      "city": "Maputo"
    },
    {
      "lat": "38°00'S",
      "lon": "57°33'W",
      "city": "Mar del Plata"
    },
    {
      "lat": "10°39'N",
      "lon": "71°38'W",
      "city": "Maracaibo"
    },
    {
      "lat": "10°15'N",
      "lon": "67°36'W",
      "city": "Maracay"
    },
    {
      "lat": "31°38'N",
      "lon": "8°01'W",
      "city": "Marrakech"
    },
    {
      "lat": "43°18'N",
      "lon": "5°22'E",
      "city": "Marseille"
    },
    {
      "lat": "29°19'S",
      "lon": "27°29'E",
      "city": "Maseru"
    },
    {
      "lat": "36°18'N",
      "lon": "59°36'E",
      "city": "Mashhad"
    },
    {
      "lat": "27°44'N",
      "lon": "15°34'W",
      "city": "Maspalomas"
    },
    {
      "lat": "13°17'S",
      "lon": "176°11'W",
      "city": "Mata-Utu"
    },
    {
      "lat": "35°28'N",
      "lon": "133°03'E",
      "city": "Matsue"
    },
    {
      "lat": "33°50'N",
      "lon": "132°46'E",
      "city": "Matsuyama"
    },
    {
      "lat": "26°19'S",
      "lon": "31°08'E",
      "city": "Mbabane"
    },
    {
      "lat": "0°03'N",
      "lon": "18°15'E",
      "city": "Mbandaka"
    },
    {
      "lat": "21°25'N",
      "lon": "39°49'E",
      "city": "Mecca"
    },
    {
      "lat": "3°35'N",
      "lon": "98°40'E",
      "city": "Medan"
    },
    {
      "lat": "6°14'N",
      "lon": "75°35'W",
      "city": "Medellín"
    },
    {
      "lat": "24°28'N",
      "lon": "39°36'E",
      "city": "Medina"
    },
    {
      "lat": "37°49'S",
      "lon": "144°58'E",
      "city": "Melbourne"
    },
    {
      "lat": "7°29'N",
      "lon": "134°36'E",
      "city": "Melekeok"
    },
    {
      "lat": "35°17'N",
      "lon": "2°56'W",
      "city": "Melilla"
    },
    {
      "lat": "35°07'N",
      "lon": "89°58'W",
      "city": "Memphis"
    },
    {
      "lat": "32°53'S",
      "lon": "68°49'W",
      "city": "Mendoza"
    },
    {
      "lat": "36°48'N",
      "lon": "34°38'E",
      "city": "Mersin"
    },
    {
      "lat": "38°11'N",
      "lon": "15°33'E",
      "city": "Messina"
    },
    {
      "lat": "32°40'N",
      "lon": "115°28'W",
      "city": "Mexicali"
    },
    {
      "lat": "19°26'N",
      "lon": "99°08'W",
      "city": " Mexico City"
    },
    {
      "lat": "25°47'N",
      "lon": "80°13'W",
      "city": "Miami"
    },
    {
      "lat": "54°34'N",
      "lon": "1°14'W",
      "city": "Middlesbrough"
    },
    {
      "lat": "45°28'N",
      "lon": "9°11'E",
      "city": "Milan"
    },
    {
      "lat": "43°03'N",
      "lon": "87°57'W",
      "city": "Milwaukee"
    },
    {
      "lat": "44°59'N",
      "lon": "93°16'W",
      "city": "Minneapolis"
    },
    {
      "lat": "53°54'N",
      "lon": "27°34'E",
      "city": "Minsk"
    },
    {
      "lat": "4°24'N",
      "lon": "114°00'E",
      "city": "Miri"
    },
    {
      "lat": "36°22'N",
      "lon": "140°28'E",
      "city": "Mito"
    },
    {
      "lat": "31°55'N",
      "lon": "131°25'E",
      "city": "Miyazaki"
    },
    {
      "lat": "30°42'N",
      "lon": "88°03'W",
      "city": "Mobile"
    },
    {
      "lat": "2°02'N",
      "lon": "45°21'E",
      "city": "Mogadishu"
    },
    {
      "lat": "4°03'S",
      "lon": "39°40'E",
      "city": "Mombasa"
    },
    {
      "lat": "43°44'N",
      "lon": "7°25'E",
      "city": "Monaco"
    },
    {
      "lat": "46°08'N",
      "lon": "64°46'W",
      "city": "Moncton"
    },
    {
      "lat": "6°19'N",
      "lon": "10°48'W",
      "city": "Monrovia"
    },
    {
      "lat": "25°40'N",
      "lon": "100°18'W",
      "city": "Monterrey"
    },
    {
      "lat": "34°53'S",
      "lon": "56°11'W",
      "city": "Montevideo"
    },
    {
      "lat": "44°15'N",
      "lon": "72°34'W",
      "city": "Montpelier"
    },
    {
      "lat": "45°30'N",
      "lon": "73°34'W",
      "city": "Montreal"
    },
    {
      "lat": "39°41'N",
      "lon": "141°09'E",
      "city": "Morioka"
    },
    {
      "lat": "11°45'S",
      "lon": "43°12'E",
      "city": "Moroni"
    },
    {
      "lat": "46°44'N",
      "lon": "117°00'W",
      "city": "Moscow"
    },
    {
      "lat": "55°45'N",
      "lon": "37°37'E",
      "city": "Moscow"
    },
    {
      "lat": "36°20'N",
      "lon": "43°08'E",
      "city": "Mosul"
    },
    {
      "lat": "8°34'N",
      "lon": "16°05'E",
      "city": "Moundou"
    },
    {
      "lat": "37°13'N",
      "lon": "28°22'E",
      "city": "Mugla"
    },
    {
      "lat": "30°12'N",
      "lon": "71°28'E",
      "city": "Multan"
    },
    {
      "lat": "18°59'N",
      "lon": "72°50'E",
      "city": "Mumbai"
    },
    {
      "lat": "48°08'N",
      "lon": "11°34'E",
      "city": "Munich"
    },
    {
      "lat": "68°58'N",
      "lon": "33°05'E",
      "city": "Murmansk"
    },
    {
      "lat": "23°37'N",
      "lon": "58°36'E",
      "city": "Muscat"
    },
    {
      "lat": "18°58'S",
      "lon": "32°38'E",
      "city": "Mutare"
    },
    {
      "lat": "2°31'S",
      "lon": "32°54'E",
      "city": "Mwanza"
    },
    {
      "lat": "36°43'N",
      "lon": "4°25'W",
      "city": "Málaga"
    },
    {
      "lat": "8°35'N",
      "lon": "71°08'W",
      "city": "Mérida"
    },
    {
      "lat": "20°58'N",
      "lon": "89°37'W",
      "city": "Mérida"
    },
    {
      "lat": "51°57'N",
      "lon": "7°37'E",
      "city": "Münster"
    },
    {
      "lat": "12°07'N",
      "lon": "15°03'E",
      "city": "N'Djamena"
    },
    {
      "lat": "36°38'N",
      "lon": "138°11'E",
      "city": "Nagano"
    },
    {
      "lat": "32°47'N",
      "lon": "129°52'E",
      "city": "Nagasaki"
    },
    {
      "lat": "35°11'N",
      "lon": "136°54'E",
      "city": "Nagoya"
    },
    {
      "lat": "21°08'N",
      "lon": "79°05'E",
      "city": "Nagpur"
    },
    {
      "lat": "26°13'N",
      "lon": "127°41'E",
      "city": "Naha"
    },
    {
      "lat": "1°17'S",
      "lon": "36°49'E",
      "city": "Nairobi"
    },
    {
      "lat": "32°00'N",
      "lon": "44°22'E",
      "city": "Najaf"
    },
    {
      "lat": "14°59'N",
      "lon": "102°06'E",
      "city": "Nakhon Ratchasima"
    },
    {
      "lat": "41°00'N",
      "lon": "71°40'E",
      "city": "Namangan"
    },
    {
      "lat": "32°03'N",
      "lon": "118°46'E",
      "city": "Nanjing"
    },
    {
      "lat": "22°49'N",
      "lon": "108°19'E",
      "city": "Nanning"
    },
    {
      "lat": "47°13'N",
      "lon": "1°33'W",
      "city": "Nantes"
    },
    {
      "lat": "40°51'N",
      "lon": "14°16'E",
      "city": "Naples"
    },
    {
      "lat": "34°41'N",
      "lon": "135°48'E",
      "city": "Nara"
    },
    {
      "lat": "68°25'N",
      "lon": "17°34'E",
      "city": "Narvik"
    },
    {
      "lat": "36°10'N",
      "lon": "86°47'W",
      "city": "Nashville"
    },
    {
      "lat": "25°04'N",
      "lon": "77°20'W",
      "city": "Nassau"
    },
    {
      "lat": "5°47'S",
      "lon": "35°12'W",
      "city": "Natal"
    },
    {
      "lat": "19°45'N",
      "lon": "96°06'E",
      "city": "Naypyidaw"
    },
    {
      "lat": "12°58'S",
      "lon": "28°38'E",
      "city": "Ndola"
    },
    {
      "lat": "41°16'S",
      "lon": "173°17'E",
      "city": "Nelson"
    },
    {
      "lat": "25°28'S",
      "lon": "30°59'E",
      "city": "Nelspruit"
    },
    {
      "lat": "43°20'N",
      "lon": "145°35'E",
      "city": "Nemuro"
    },
    {
      "lat": "38°57'S",
      "lon": "68°03'W",
      "city": "Neuquén"
    },
    {
      "lat": "28°37'N",
      "lon": "77°13'E",
      "city": "New Delhi"
    },
    {
      "lat": "45°36'N",
      "lon": "62°39'W",
      "city": "New Glasgow"
    },
    {
      "lat": "29°58'N",
      "lon": "90°03'W",
      "city": "New Orleans"
    },
    {
      "lat": "40°40'N",
      "lon": "73°56'W",
      "city": "New York City"
    },
    {
      "lat": "32°55'S",
      "lon": "151°45'E",
      "city": "Newcastle"
    },
    {
      "lat": "54°58'N",
      "lon": "1°37'W",
      "city": "Newcastle upon Tyne"
    },
    {
      "lat": "13°31'N",
      "lon": "2°06'E",
      "city": "Niamey"
    },
    {
      "lat": "43°42'N",
      "lon": "7°16'E",
      "city": "Nice"
    },
    {
      "lat": "35°10'N",
      "lon": "33°22'E",
      "city": "Nicosia"
    },
    {
      "lat": "37°55'N",
      "lon": "139°02'E",
      "city": "Niigata"
    },
    {
      "lat": "56°20'N",
      "lon": "44°00'E",
      "city": "Nizhny Novgorod"
    },
    {
      "lat": "64°30'N",
      "lon": "165°23'W",
      "city": "Nome"
    },
    {
      "lat": "81°36'N",
      "lon": "16°40'W",
      "city": "Nord"
    },
    {
      "lat": "69°20'N",
      "lon": "88°13'E",
      "city": "Norilsk"
    },
    {
      "lat": "58°36'N",
      "lon": "16°12'E",
      "city": "Norrköping"
    },
    {
      "lat": "46°18'N",
      "lon": "79°27'W",
      "city": "North Bay"
    },
    {
      "lat": "52°38'N",
      "lon": "1°18'E",
      "city": "Norwich"
    },
    {
      "lat": "52°57'N",
      "lon": "1°08'W",
      "city": "Nottingham"
    },
    {
      "lat": "18°06'N",
      "lon": "15°57'W",
      "city": "Nouakchott"
    },
    {
      "lat": "22°17'S",
      "lon": "166°27'E",
      "city": "Nouméa"
    },
    {
      "lat": "45°15'N",
      "lon": "19°51'E",
      "city": "Novi Sad"
    },
    {
      "lat": "55°01'N",
      "lon": "82°56'E",
      "city": "Novosibirsk"
    },
    {
      "lat": "9°23'S",
      "lon": "179°51'E",
      "city": "Nukulaelae"
    },
    {
      "lat": "42°28'N",
      "lon": "59°36'E",
      "city": "Nukus"
    },
    {
      "lat": "21°08'S",
      "lon": "175°12'W",
      "city": "Nukuʻalofa"
    },
    {
      "lat": "70°05'N",
      "lon": "27°53'E",
      "city": "Nuorgam"
    },
    {
      "lat": "49°27'N",
      "lon": "11°05'E",
      "city": "Nuremberg"
    },
    {
      "lat": "64°11'N",
      "lon": "51°44'W",
      "city": "Nuuk (Godthåb)"
    },
    {
      "lat": "78°55'N",
      "lon": "11°56'E",
      "city": "Ny-Ålesund"
    },
    {
      "lat": "7°45'N",
      "lon": "8°49'W",
      "city": "Nzérékoré"
    },
    {
      "lat": "37°48'N",
      "lon": "122°16'W",
      "city": "Oakland"
    },
    {
      "lat": "42°55'N",
      "lon": "143°12'E",
      "city": "Obihiro"
    },
    {
      "lat": "55°24'N",
      "lon": "10°23'E",
      "city": "Odense"
    },
    {
      "lat": "46°28'N",
      "lon": "30°44'E",
      "city": "Odessa"
    },
    {
      "lat": "34°39'N",
      "lon": "133°55'E",
      "city": "Okayama"
    },
    {
      "lat": "35°29'N",
      "lon": "97°32'W",
      "city": "Oklahoma City"
    },
    {
      "lat": "15°39'N",
      "lon": "32°29'E",
      "city": "Omdurman"
    },
    {
      "lat": "54°59'N",
      "lon": "73°22'E",
      "city": "Omsk"
    },
    {
      "lat": "12°31'N",
      "lon": "70°02'W",
      "city": "Oranjestad"
    },
    {
      "lat": "28°25'N",
      "lon": "81°18'W",
      "city": "Orlando"
    },
    {
      "lat": "47°54'N",
      "lon": "1°55'E",
      "city": "Orléans"
    },
    {
      "lat": "34°42'N",
      "lon": "135°30'E",
      "city": "Osaka"
    },
    {
      "lat": "59°57'N",
      "lon": "10°45'E",
      "city": "Oslo"
    },
    {
      "lat": "45°25'N",
      "lon": "75°41'W",
      "city": "Ottawa"
    },
    {
      "lat": "12°21'N",
      "lon": "1°32'W",
      "city": "Ouagadougou"
    },
    {
      "lat": "65°01'N",
      "lon": "25°28'E",
      "city": "Oulu"
    },
    {
      "lat": "43°21'N",
      "lon": "5°50'W",
      "city": "Oviedo"
    },
    {
      "lat": "51°45'N",
      "lon": "1°15'W",
      "city": "Oxford"
    },
    {
      "lat": "0°57'S",
      "lon": "100°21'E",
      "city": "Padang"
    },
    {
      "lat": "14°17'S",
      "lon": "170°42'W",
      "city": "Pago Pago"
    },
    {
      "lat": "2°59'S",
      "lon": "104°45'E",
      "city": "Palembang"
    },
    {
      "lat": "38°07'N",
      "lon": "13°22'E",
      "city": "Palermo"
    },
    {
      "lat": "6°55'N",
      "lon": "158°10'E",
      "city": "Palikir"
    },
    {
      "lat": "39°34'N",
      "lon": "2°39'E",
      "city": "Palma"
    },
    {
      "lat": "10°11'S",
      "lon": "48°20'W",
      "city": "Palmas"
    },
    {
      "lat": "8°59'N",
      "lon": "79°31'W",
      "city": "Panama City"
    },
    {
      "lat": "17°32'S",
      "lon": "149°34'W",
      "city": "Papeete"
    },
    {
      "lat": "5°52'N",
      "lon": "55°10'W",
      "city": "Paramaribo"
    },
    {
      "lat": "48°51'N",
      "lon": "2°21'E",
      "city": "Paris"
    },
    {
      "lat": "25°37'N",
      "lon": "85°09'E",
      "city": "Patna"
    },
    {
      "lat": "12°56'N",
      "lon": "100°53'E",
      "city": "Pattaya"
    },
    {
      "lat": "0°32'N",
      "lon": "101°27'E",
      "city": "Pekanbaru"
    },
    {
      "lat": "31°46'S",
      "lon": "52°21'W",
      "city": "Pelotas"
    },
    {
      "lat": "58°00'N",
      "lon": "56°19'E",
      "city": "Perm"
    },
    {
      "lat": "31°57'S",
      "lon": "115°52'E",
      "city": "Perth"
    },
    {
      "lat": "34°01'N",
      "lon": "71°35'E",
      "city": "Peshawar"
    },
    {
      "lat": "52°35'N",
      "lon": "0°15'W",
      "city": "Peterborough"
    },
    {
      "lat": "9°24'S",
      "lon": "40°30'W",
      "city": "Petrolina"
    },
    {
      "lat": "54°53'N",
      "lon": "69°10'E",
      "city": "Petropavl"
    },
    {
      "lat": "53°01'N",
      "lon": "158°39'E",
      "city": "Petropavlovsk-Kamchatsky"
    },
    {
      "lat": "39°57'N",
      "lon": "75°10'W",
      "city": "Philadelphia"
    },
    {
      "lat": "11°33'N",
      "lon": "104°55'E",
      "city": "Phnom Penh"
    },
    {
      "lat": "33°27'N",
      "lon": "112°04'W",
      "city": "Phoenix"
    },
    {
      "lat": "7°53'N",
      "lon": "98°24'E",
      "city": "Phuket"
    },
    {
      "lat": "44°22'N",
      "lon": "100°20'W",
      "city": "Pierre"
    },
    {
      "lat": "29°37'S",
      "lon": "30°23'E",
      "city": "Pietermaritzburg"
    },
    {
      "lat": "65°20'N",
      "lon": "21°30'E",
      "city": "Piteå"
    },
    {
      "lat": "40°27'N",
      "lon": "80°00'W",
      "city": "Pittsburgh"
    },
    {
      "lat": "50°22'N",
      "lon": "4°09'W",
      "city": "Plymouth"
    },
    {
      "lat": "42°26'N",
      "lon": "19°16'E",
      "city": "Podgorica"
    },
    {
      "lat": "23°54'S",
      "lon": "29°27'E",
      "city": "Polokwane"
    },
    {
      "lat": "37°49'N",
      "lon": "25°45'W",
      "city": "Ponta Delgada"
    },
    {
      "lat": "0°01'S",
      "lon": "109°20'E",
      "city": "Pontianak"
    },
    {
      "lat": "11°40'N",
      "lon": "92°46'E",
      "city": "Port Blair"
    },
    {
      "lat": "33°57'S",
      "lon": "25°36'E",
      "city": "Port Elizabeth"
    },
    {
      "lat": "4°45'N",
      "lon": "7°00'E",
      "city": "Port Harcourt"
    },
    {
      "lat": "20°19'S",
      "lon": "118°36'E",
      "city": "Port Hedland"
    },
    {
      "lat": "20°10'S",
      "lon": "57°30'E",
      "city": "Port Louis"
    },
    {
      "lat": "9°31'S",
      "lon": "147°13'E",
      "city": "Port Moresby"
    },
    {
      "lat": "10°40'N",
      "lon": "61°31'W",
      "city": "Port of Spain"
    },
    {
      "lat": "31°15'N",
      "lon": "32°17'E",
      "city": "Port Said"
    },
    {
      "lat": "17°45'S",
      "lon": "168°18'E",
      "city": "Port Vila"
    },
    {
      "lat": "18°32'N",
      "lon": "72°20'W",
      "city": "Port-au-Prince"
    },
    {
      "lat": "45°31'N",
      "lon": "122°41'W",
      "city": "Portland"
    },
    {
      "lat": "41°10'N",
      "lon": "8°37'W",
      "city": "Porto"
    },
    {
      "lat": "8°46'S",
      "lon": "63°54'W",
      "city": "Porto Velho"
    },
    {
      "lat": "6°30'N",
      "lon": "2°36'E",
      "city": "Porto-Novo"
    },
    {
      "lat": "50°49'N",
      "lon": "1°05'W",
      "city": "Portsmouth"
    },
    {
      "lat": "52°24'N",
      "lon": "16°55'E",
      "city": "Poznań"
    },
    {
      "lat": "21°47'S",
      "lon": "46°34'W",
      "city": "Poços de Caldas"
    },
    {
      "lat": "50°05'N",
      "lon": "14°25'E",
      "city": "Prague"
    },
    {
      "lat": "14°55'N",
      "lon": "23°31'W",
      "city": "Praia"
    },
    {
      "lat": "25°45'S",
      "lon": "28°11'E",
      "city": "Pretoria"
    },
    {
      "lat": "53°55'N",
      "lon": "122°44'W",
      "city": "Prince George"
    },
    {
      "lat": "42°40'N",
      "lon": "21°10'E",
      "city": "Pristina"
    },
    {
      "lat": "41°49'N",
      "lon": "71°25'W",
      "city": "Providence"
    },
    {
      "lat": "65°22'N",
      "lon": "27°00'E",
      "city": "Pudasjärvi"
    },
    {
      "lat": "19°03'N",
      "lon": "98°13'W",
      "city": "Puebla"
    },
    {
      "lat": "45°24'S",
      "lon": "72°41'W",
      "city": "Puerto Aisén"
    },
    {
      "lat": "5°40'N",
      "lon": "67°38'W",
      "city": "Puerto Ayacucho"
    },
    {
      "lat": "41°28'S",
      "lon": "72°56'W",
      "city": "Puerto Montt"
    },
    {
      "lat": "55°05'S",
      "lon": "67°05'W",
      "city": "Puerto Toro"
    },
    {
      "lat": "20°40'N",
      "lon": "105°16'W",
      "city": "Puerto Vallarta"
    },
    {
      "lat": "54°56'S",
      "lon": "67°37'W",
      "city": "Puerto Williams"
    },
    {
      "lat": "18°31'N",
      "lon": "73°51'E",
      "city": "Pune"
    },
    {
      "lat": "53°10'S",
      "lon": "70°56'W",
      "city": "Punta Arenas"
    },
    {
      "lat": "9°58'N",
      "lon": "84°50'W",
      "city": "Puntarenas"
    },
    {
      "lat": "39°01'N",
      "lon": "125°44'E",
      "city": "Pyongyang"
    },
    {
      "lat": "77°28'N",
      "lon": "69°14'W",
      "city": "Qaanaaq"
    },
    {
      "lat": "60°43'N",
      "lon": "46°02'W",
      "city": "Qaqortoq"
    },
    {
      "lat": "36°04'N",
      "lon": "120°23'E",
      "city": "Qingdao"
    },
    {
      "lat": "47°26'N",
      "lon": "123°27'E",
      "city": "Qiqihar"
    },
    {
      "lat": "46°49'N",
      "lon": "71°13'W",
      "city": "Quebec City"
    },
    {
      "lat": "20°35'N",
      "lon": "100°24'W",
      "city": "Querétaro"
    },
    {
      "lat": "14°50'N",
      "lon": "91°31'W",
      "city": "Quetzaltenango"
    },
    {
      "lat": "14°38'N",
      "lon": "121°02'E",
      "city": "Quezon City"
    },
    {
      "lat": "0°15'S",
      "lon": "78°35'W",
      "city": "Quito"
    },
    {
      "lat": "34°02'N",
      "lon": "6°50'W",
      "city": "Rabat"
    },
    {
      "lat": "16°30'S",
      "lon": "180°00'W",
      "city": "Rabi Island"
    },
    {
      "lat": "21°15'N",
      "lon": "81°38'E",
      "city": "Raipur"
    },
    {
      "lat": "35°49'N",
      "lon": "78°39'W",
      "city": "Raleigh"
    },
    {
      "lat": "44°25'N",
      "lon": "12°12'E",
      "city": "Ravenna"
    },
    {
      "lat": "33°36'N",
      "lon": "73°02'E",
      "city": "Rawalpindi"
    },
    {
      "lat": "8°03'S",
      "lon": "34°54'W",
      "city": "Recife"
    },
    {
      "lat": "50°27'N",
      "lon": "104°36'W",
      "city": "Regina"
    },
    {
      "lat": "39°32'N",
      "lon": "119°49'W",
      "city": "Reno"
    },
    {
      "lat": "64°08'N",
      "lon": "21°56'W",
      "city": "Reykjavík"
    },
    {
      "lat": "21°11'S",
      "lon": "47°48'W",
      "city": "Ribeirão Preto"
    },
    {
      "lat": "56°57'N",
      "lon": "24°06'E",
      "city": "Riga"
    },
    {
      "lat": "9°58'S",
      "lon": "67°49'W",
      "city": "Rio Branco"
    },
    {
      "lat": "22°55'S",
      "lon": "43°12'W",
      "city": "Rio de Janeiro"
    },
    {
      "lat": "33°57'N",
      "lon": "117°24'W",
      "city": "Riverside"
    },
    {
      "lat": "24°38'N",
      "lon": "46°43'E",
      "city": "Riyadh"
    },
    {
      "lat": "18°26'N",
      "lon": "64°37'W",
      "city": "Road Town"
    },
    {
      "lat": "43°10'N",
      "lon": "77°37'W",
      "city": "Rochester"
    },
    {
      "lat": "23°23'S",
      "lon": "150°31'E",
      "city": "Rockhampton"
    },
    {
      "lat": "41°54'N",
      "lon": "12°30'E",
      "city": "Rome"
    },
    {
      "lat": "32°57'S",
      "lon": "60°40'W",
      "city": "Rosario"
    },
    {
      "lat": "15°18'N",
      "lon": "61°23'W",
      "city": "Roseau"
    },
    {
      "lat": "54°05'N",
      "lon": "12°08'E",
      "city": "Rostock"
    },
    {
      "lat": "47°14'N",
      "lon": "39°42'E",
      "city": "Rostov-on-Don"
    },
    {
      "lat": "67°34'S",
      "lon": "68°08'W",
      "city": "Rothera"
    },
    {
      "lat": "51°56'N",
      "lon": "4°29'E",
      "city": "Rotterdam"
    },
    {
      "lat": "49°26'N",
      "lon": "1°06'E",
      "city": "Rouen"
    },
    {
      "lat": "66°30'N",
      "lon": "25°44'E",
      "city": "Rovaniemi"
    },
    {
      "lat": "51°38'S",
      "lon": "69°13'W",
      "city": "Río Gallegos"
    },
    {
      "lat": "27°02'N",
      "lon": "14°26'E",
      "city": "Sabha"
    },
    {
      "lat": "38°33'N",
      "lon": "121°28'W",
      "city": "Sacramento"
    },
    {
      "lat": "33°16'N",
      "lon": "130°18'E",
      "city": "Saga"
    },
    {
      "lat": "48°25'N",
      "lon": "71°04'W",
      "city": "Saguenay"
    },
    {
      "lat": "45°17'N",
      "lon": "66°05'W",
      "city": "Saint John"
    },
    {
      "lat": "59°57'N",
      "lon": "30°18'E",
      "city": "Saint Petersburg"
    },
    {
      "lat": "20°53'S",
      "lon": "55°27'E",
      "city": "Saint-Denis"
    },
    {
      "lat": "46°47'N",
      "lon": "56°11'W",
      "city": "Saint-Pierre"
    },
    {
      "lat": "15°11'N",
      "lon": "145°45'E",
      "city": "Saipan"
    },
    {
      "lat": "17°01'N",
      "lon": "54°05'E",
      "city": "Salalah"
    },
    {
      "lat": "40°45'N",
      "lon": "111°53'W",
      "city": "Salt Lake City"
    },
    {
      "lat": "24°47'S",
      "lon": "65°25'W",
      "city": "Salta"
    },
    {
      "lat": "12°58'S",
      "lon": "38°29'W",
      "city": "Salvador"
    },
    {
      "lat": "47°48'N",
      "lon": "13°02'E",
      "city": "Salzburg"
    },
    {
      "lat": "53°12'N",
      "lon": "50°08'E",
      "city": "Samara"
    },
    {
      "lat": "29°25'N",
      "lon": "98°30'W",
      "city": "San Antonio"
    },
    {
      "lat": "41°09'S",
      "lon": "71°18'W",
      "city": "San Carlos de Bariloche"
    },
    {
      "lat": "7°45'N",
      "lon": "72°13'W",
      "city": "San Cristóbal"
    },
    {
      "lat": "32°43'N",
      "lon": "117°10'W",
      "city": "San Diego"
    },
    {
      "lat": "10°17'N",
      "lon": "61°28'W",
      "city": "San Fernando"
    },
    {
      "lat": "37°47'N",
      "lon": "122°25'W",
      "city": "San Francisco"
    },
    {
      "lat": "37°20'N",
      "lon": "121°53'W",
      "city": "San Jose"
    },
    {
      "lat": "9°56'N",
      "lon": "84°05'W",
      "city": "San José"
    },
    {
      "lat": "18°27'N",
      "lon": "66°04'W",
      "city": "San Juan"
    },
    {
      "lat": "22°09'N",
      "lon": "100°51'W",
      "city": "San Luis Potosí"
    },
    {
      "lat": "43°56'N",
      "lon": "12°27'E",
      "city": "San Marino"
    },
    {
      "lat": "26°49'S",
      "lon": "65°13'W",
      "city": "San Miguel de Tucumán"
    },
    {
      "lat": "13°41'N",
      "lon": "89°11'W",
      "city": "San Salvador"
    },
    {
      "lat": "43°19'N",
      "lon": "2°00'W",
      "city": "San Sebastián"
    },
    {
      "lat": "15°21'N",
      "lon": "44°12'E",
      "city": "Sana'a"
    },
    {
      "lat": "34°26'N",
      "lon": "119°43'W",
      "city": "Santa Barbara"
    },
    {
      "lat": "17°48'S",
      "lon": "63°10'W",
      "city": "Santa Cruz de la Sierra"
    },
    {
      "lat": "28°28'N",
      "lon": "16°15'W",
      "city": "Santa Cruz de Tenerife"
    },
    {
      "lat": "31°38'S",
      "lon": "60°42'W",
      "city": "Santa Fe"
    },
    {
      "lat": "35°40'N",
      "lon": "105°58'W",
      "city": "Santa Fe"
    },
    {
      "lat": "33°27'S",
      "lon": "70°40'W",
      "city": "Santiago"
    },
    {
      "lat": "3°25'N",
      "lon": "76°31'W",
      "city": "Santiago de Cali"
    },
    {
      "lat": "42°53'N",
      "lon": "8°32'W",
      "city": "Santiago de Compostela"
    },
    {
      "lat": "20°01'N",
      "lon": "75°49'W",
      "city": "Santiago de Cuba"
    },
    {
      "lat": "18°28'N",
      "lon": "69°57'W",
      "city": "Santo Domingo"
    },
    {
      "lat": "43°04'N",
      "lon": "141°21'E",
      "city": "Sapporo"
    },
    {
      "lat": "43°51'N",
      "lon": "18°21'E",
      "city": "Sarajevo"
    },
    {
      "lat": "51°32'N",
      "lon": "46°01'E",
      "city": "Saratov"
    },
    {
      "lat": "59°17'N",
      "lon": "11°12'E",
      "city": "Sarpsborg"
    },
    {
      "lat": "52°08'N",
      "lon": "106°41'W",
      "city": "Saskatoon"
    },
    {
      "lat": "46°32'N",
      "lon": "84°21'W",
      "city": "Sault Ste. Marie"
    },
    {
      "lat": "47°37'N",
      "lon": "122°20'W",
      "city": "Seattle"
    },
    {
      "lat": "4°55'N",
      "lon": "1°46'W",
      "city": "Sekondi-Takoradi"
    },
    {
      "lat": "6°58'S",
      "lon": "110°25'E",
      "city": "Semarang"
    },
    {
      "lat": "38°16'N",
      "lon": "140°52'E",
      "city": "Sendai"
    },
    {
      "lat": "37°34'N",
      "lon": "126°59'E",
      "city": "Seoul"
    },
    {
      "lat": "13°26'N",
      "lon": "16°40'W",
      "city": "Serekunda"
    },
    {
      "lat": "37°23'N",
      "lon": "5°59'W",
      "city": "Sevilla"
    },
    {
      "lat": "34°44'N",
      "lon": "10°46'E",
      "city": "Sfax"
    },
    {
      "lat": "31°12'N",
      "lon": "121°30'E",
      "city": "Shanghai"
    },
    {
      "lat": "53°23'N",
      "lon": "1°28'W",
      "city": "Sheffield"
    },
    {
      "lat": "41°48'N",
      "lon": "123°24'E",
      "city": "Shenyang"
    },
    {
      "lat": "22°33'N",
      "lon": "114°06'E",
      "city": "Shenzhen"
    },
    {
      "lat": "29°16'N",
      "lon": "88°53'E",
      "city": "Shigatse"
    },
    {
      "lat": "38°03'N",
      "lon": "114°30'E",
      "city": "Shijiazhuang"
    },
    {
      "lat": "25°34'N",
      "lon": "91°53'E",
      "city": "Shillong"
    },
    {
      "lat": "31°06'N",
      "lon": "77°10'E",
      "city": "Shimla"
    },
    {
      "lat": "34°59'N",
      "lon": "138°23'E",
      "city": "Shizuoka"
    },
    {
      "lat": "32°28'N",
      "lon": "93°42'W",
      "city": "Shreveport"
    },
    {
      "lat": "13°22'N",
      "lon": "103°52'E",
      "city": "Siem Reap"
    },
    {
      "lat": "26°43'N",
      "lon": "88°26'E",
      "city": "Siliguri"
    },
    {
      "lat": "44°57'N",
      "lon": "34°06'E",
      "city": "Simferopol"
    },
    {
      "lat": "1°17'N",
      "lon": "103°50'E",
      "city": "Singapore"
    },
    {
      "lat": "11°51'S",
      "lon": "55°39'W",
      "city": "Sinop"
    },
    {
      "lat": "43°32'N",
      "lon": "96°43'W",
      "city": "Sioux Falls"
    },
    {
      "lat": "57°03'N",
      "lon": "135°20'W",
      "city": "Sitka"
    },
    {
      "lat": "64°45'N",
      "lon": "20°57'E",
      "city": "Skellefteå"
    },
    {
      "lat": "42°00'N",
      "lon": "21°26'E",
      "city": "Skopje"
    },
    {
      "lat": "3°40'S",
      "lon": "40°14'W",
      "city": "Sobral"
    },
    {
      "lat": "43°35'N",
      "lon": "39°43'E",
      "city": "Sochi"
    },
    {
      "lat": "42°42'N",
      "lon": "23°20'E",
      "city": "Sofia"
    },
    {
      "lat": "15°11'N",
      "lon": "108°53'E",
      "city": "Son My"
    },
    {
      "lat": "1°26'N",
      "lon": "173°00'E",
      "city": "South Tarawa"
    },
    {
      "lat": "50°54'N",
      "lon": "1°24'W",
      "city": "Southampton"
    },
    {
      "lat": "43°30'N",
      "lon": "16°26'E",
      "city": "Split"
    },
    {
      "lat": "37°12'N",
      "lon": "93°17'W",
      "city": "Springfield"
    },
    {
      "lat": "6°55'N",
      "lon": "79°53'E",
      "city": "Sri Jayawardenapura-Kotte"
    },
    {
      "lat": "34°05'N",
      "lon": "74°47'E",
      "city": "Srinagar"
    },
    {
      "lat": "12°03'N",
      "lon": "61°45'W",
      "city": "St. George's"
    },
    {
      "lat": "17°07'N",
      "lon": "61°51'W",
      "city": "St. John's"
    },
    {
      "lat": "47°34'N",
      "lon": "52°42'W",
      "city": "St. John's"
    },
    {
      "lat": "38°38'N",
      "lon": "90°12'W",
      "city": "St. Louis"
    },
    {
      "lat": "51°42'S",
      "lon": "57°52'W",
      "city": "Stanley"
    },
    {
      "lat": "39°49'N",
      "lon": "46°45'E",
      "city": "Stepanakert"
    },
    {
      "lat": "56°09'N",
      "lon": "3°56'W",
      "city": "Stirling"
    },
    {
      "lat": "63°29'N",
      "lon": "11°10'E",
      "city": "Stjørdal"
    },
    {
      "lat": "59°20'N",
      "lon": "18°04'E",
      "city": "Stockholm"
    },
    {
      "lat": "48°35'N",
      "lon": "7°45'E",
      "city": "Strasbourg"
    },
    {
      "lat": "48°47'N",
      "lon": "9°11'E",
      "city": "Stuttgart"
    },
    {
      "lat": "19°03'S",
      "lon": "65°15'W",
      "city": "Sucre"
    },
    {
      "lat": "46°29'N",
      "lon": "81°01'W",
      "city": "Sudbury"
    },
    {
      "lat": "29°58'N",
      "lon": "32°33'E",
      "city": "Suez"
    },
    {
      "lat": "43°00'N",
      "lon": "41°01'E",
      "city": "Sukhumi"
    },
    {
      "lat": "54°54'N",
      "lon": "1°23'W",
      "city": "Sunderland"
    },
    {
      "lat": "62°24'N",
      "lon": "17°19'E",
      "city": "Sundsvall"
    },
    {
      "lat": "7°16'S",
      "lon": "112°45'E",
      "city": "Surabaya"
    },
    {
      "lat": "21°10'N",
      "lon": "72°50'E",
      "city": "Surat"
    },
    {
      "lat": "9°08'N",
      "lon": "99°20'E",
      "city": "Surat Thani"
    },
    {
      "lat": "18°08'S",
      "lon": "178°27'E",
      "city": "Suva"
    },
    {
      "lat": "51°37'N",
      "lon": "3°57'W",
      "city": "Swansea"
    },
    {
      "lat": "33°52'S",
      "lon": "151°13'E",
      "city": "Sydney"
    },
    {
      "lat": "20°48'S",
      "lon": "49°23'W",
      "city": "São José do Rio Preto"
    },
    {
      "lat": "23°11'S",
      "lon": "45°53'W",
      "city": "São José dos Campos"
    },
    {
      "lat": "2°32'S",
      "lon": "44°18'W",
      "city": "São Luís"
    },
    {
      "lat": "23°33'S",
      "lon": "46°38'W",
      "city": "São Paulo"
    },
    {
      "lat": "0°20'N",
      "lon": "6°41'E",
      "city": "São Tomé"
    },
    {
      "lat": "38°04'N",
      "lon": "46°18'E",
      "city": "Tabriz"
    },
    {
      "lat": "9°39'N",
      "lon": "123°51'E",
      "city": "Tagbilaran"
    },
    {
      "lat": "24°09'N",
      "lon": "120°40'E",
      "city": "Taichung"
    },
    {
      "lat": "22°59'N",
      "lon": "120°11'E",
      "city": "Tainan"
    },
    {
      "lat": "25°02'N",
      "lon": "121°38'E",
      "city": "Taipei"
    },
    {
      "lat": "37°52'N",
      "lon": "112°34'E",
      "city": "Taiyuan"
    },
    {
      "lat": "34°21'N",
      "lon": "134°03'E",
      "city": "Takamatsu"
    },
    {
      "lat": "59°26'N",
      "lon": "24°45'E",
      "city": "Tallinn"
    },
    {
      "lat": "9°24'N",
      "lon": "0°51'W",
      "city": "Tamale"
    },
    {
      "lat": "27°57'N",
      "lon": "82°28'W",
      "city": "Tampa"
    },
    {
      "lat": "61°30'N",
      "lon": "23°46'E",
      "city": "Tampere"
    },
    {
      "lat": "22°15'N",
      "lon": "97°52'W",
      "city": "Tampico"
    },
    {
      "lat": "35°46'N",
      "lon": "5°48'W",
      "city": "Tangier"
    },
    {
      "lat": "14°54'N",
      "lon": "92°16'W",
      "city": "Tapachula"
    },
    {
      "lat": "58°23'N",
      "lon": "26°43'E",
      "city": "Tartu"
    },
    {
      "lat": "41°16'N",
      "lon": "69°13'E",
      "city": "Tashkent"
    },
    {
      "lat": "41°43'N",
      "lon": "44°47'E",
      "city": "Tbilisi"
    },
    {
      "lat": "14°06'N",
      "lon": "87°13'W",
      "city": "Tegucigalpa"
    },
    {
      "lat": "35°42'N",
      "lon": "51°25'E",
      "city": "Tehran"
    },
    {
      "lat": "32°04'N",
      "lon": "34°47'E",
      "city": "Tel Aviv"
    },
    {
      "lat": "38°45'S",
      "lon": "72°40'W",
      "city": "Temuco"
    },
    {
      "lat": "5°06'S",
      "lon": "42°48'W",
      "city": "Teresina"
    },
    {
      "lat": "26°38'N",
      "lon": "92°48'E",
      "city": "Tezpur"
    },
    {
      "lat": "52°05'N",
      "lon": "4°19'E",
      "city": "The Hague"
    },
    {
      "lat": "18°13'N",
      "lon": "63°03'W",
      "city": "The Valley"
    },
    {
      "lat": "40°39'N",
      "lon": "22°54'E",
      "city": "Thessaloniki"
    },
    {
      "lat": "27°28'N",
      "lon": "89°39'E",
      "city": "Thimphu"
    },
    {
      "lat": "14°47'N",
      "lon": "16°55'W",
      "city": "Thiès"
    },
    {
      "lat": "48°23'N",
      "lon": "89°15'W",
      "city": "Thunder Bay"
    },
    {
      "lat": "39°08'N",
      "lon": "117°11'E",
      "city": "Tianjin"
    },
    {
      "lat": "35°22'N",
      "lon": "1°19'E",
      "city": "Tiaret"
    },
    {
      "lat": "32°32'N",
      "lon": "117°02'W",
      "city": "Tijuana"
    },
    {
      "lat": "71°39'N",
      "lon": "128°52'E",
      "city": "Tiksi"
    },
    {
      "lat": "16°47'N",
      "lon": "3°01'W",
      "city": "Timbuktu"
    },
    {
      "lat": "41°20'N",
      "lon": "19°49'E",
      "city": "Tirana"
    },
    {
      "lat": "46°51'N",
      "lon": "29°38'E",
      "city": "Tiraspol"
    },
    {
      "lat": "34°04'N",
      "lon": "134°33'E",
      "city": "Tokushima"
    },
    {
      "lat": "35°41'N",
      "lon": "139°42'E",
      "city": "Tokyo"
    },
    {
      "lat": "53°31'N",
      "lon": "49°25'E",
      "city": "Tolyatti"
    },
    {
      "lat": "65°51'N",
      "lon": "24°09'E",
      "city": "Tornio"
    },
    {
      "lat": "43°42'N",
      "lon": "79°24'W",
      "city": "Toronto"
    },
    {
      "lat": "25°32'N",
      "lon": "103°27'W",
      "city": "Torreón"
    },
    {
      "lat": "35°30'N",
      "lon": "134°14'E",
      "city": "Tottori"
    },
    {
      "lat": "43°36'N",
      "lon": "1°27'E",
      "city": "Toulouse"
    },
    {
      "lat": "19°15'S",
      "lon": "146°49'E",
      "city": "Townsville"
    },
    {
      "lat": "36°42'N",
      "lon": "137°13'E",
      "city": "Toyama"
    },
    {
      "lat": "41°00'N",
      "lon": "39°44'E",
      "city": "Trabzon"
    },
    {
      "lat": "38°01'N",
      "lon": "12°30'E",
      "city": "Trapani"
    },
    {
      "lat": "43°15'S",
      "lon": "65°18'W",
      "city": "Trelew"
    },
    {
      "lat": "40°13'N",
      "lon": "74°46'W",
      "city": "Trenton"
    },
    {
      "lat": "32°54'N",
      "lon": "13°11'E",
      "city": "Tripoli"
    },
    {
      "lat": "8°29'N",
      "lon": "76°57'E",
      "city": "Trivandrum"
    },
    {
      "lat": "69°41'N",
      "lon": "18°57'E",
      "city": "Tromsø"
    },
    {
      "lat": "63°26'N",
      "lon": "10°24'E",
      "city": "Trondheim"
    },
    {
      "lat": "8°07'S",
      "lon": "79°02'W",
      "city": "Trujillo"
    },
    {
      "lat": "42°14'N",
      "lon": "43°58'E",
      "city": "Tskhinvali"
    },
    {
      "lat": "34°43'N",
      "lon": "136°30'E",
      "city": "Tsu"
    },
    {
      "lat": "32°13'N",
      "lon": "110°56'W",
      "city": "Tucson"
    },
    {
      "lat": "69°27'N",
      "lon": "133°02'W",
      "city": "Tuktoyaktuk"
    },
    {
      "lat": "36°08'N",
      "lon": "95°56'W",
      "city": "Tulsa"
    },
    {
      "lat": "36°48'N",
      "lon": "10°11'E",
      "city": "Tunis"
    },
    {
      "lat": "45°04'N",
      "lon": "7°42'E",
      "city": "Turin"
    },
    {
      "lat": "60°27'N",
      "lon": "22°16'E",
      "city": "Turku"
    },
    {
      "lat": "62°01'N",
      "lon": "6°46'W",
      "city": "Tórshavn"
    },
    {
      "lat": "18°55'S",
      "lon": "48°17'W",
      "city": "Uberlândia"
    },
    {
      "lat": "17°25'N",
      "lon": "102°45'E",
      "city": "Udon Thani"
    },
    {
      "lat": "54°45'N",
      "lon": "55°58'E",
      "city": "Ufa"
    },
    {
      "lat": "47°55'N",
      "lon": "106°55'E",
      "city": "Ulaanbaatar"
    },
    {
      "lat": "63°50'N",
      "lon": "20°16'E",
      "city": "Umeå"
    },
    {
      "lat": "72°47'N",
      "lon": "56°09'W",
      "city": "Upernavik"
    },
    {
      "lat": "59°51'N",
      "lon": "17°39'E",
      "city": "Uppsala"
    },
    {
      "lat": "54°48'S",
      "lon": "68°18'W",
      "city": "Ushuaia"
    },
    {
      "lat": "52°06'N",
      "lon": "5°07'E",
      "city": "Utrecht"
    },
    {
      "lat": "69°54'N",
      "lon": "27°01'E",
      "city": "Utsjoki"
    },
    {
      "lat": "36°33'N",
      "lon": "139°53'E",
      "city": "Utsunomiya"
    },
    {
      "lat": "63°06'N",
      "lon": "21°37'E",
      "city": "Vaasa"
    },
    {
      "lat": "70°05'N",
      "lon": "29°44'E",
      "city": "Vadsø"
    },
    {
      "lat": "47°08'N",
      "lon": "9°31'E",
      "city": "Vaduz"
    },
    {
      "lat": "39°49'S",
      "lon": "73°15'W",
      "city": "Valdivia"
    },
    {
      "lat": "10°11'N",
      "lon": "68°00'W",
      "city": "Valencia"
    },
    {
      "lat": "39°28'N",
      "lon": "0°23'W",
      "city": "Valencia"
    },
    {
      "lat": "57°46'N",
      "lon": "26°02'E",
      "city": "Valga"
    },
    {
      "lat": "41°40'N",
      "lon": "4°43'W",
      "city": "Valladolid"
    },
    {
      "lat": "35°54'N",
      "lon": "14°31'E",
      "city": "Valletta"
    },
    {
      "lat": "33°03'S",
      "lon": "71°37'W",
      "city": "Valparaíso"
    },
    {
      "lat": "49°15'N",
      "lon": "123°06'W",
      "city": "Vancouver"
    },
    {
      "lat": "60°18'N",
      "lon": "25°02'E",
      "city": "Vantaa"
    },
    {
      "lat": "41°54'N",
      "lon": "12°27'E",
      "city": "Vatican City"
    },
    {
      "lat": "45°26'N",
      "lon": "12°20'E",
      "city": "Venice"
    },
    {
      "lat": "19°11'N",
      "lon": "96°09'W",
      "city": "Veracruz"
    },
    {
      "lat": "67°33'N",
      "lon": "133°23'E",
      "city": "Verkhoyansk"
    },
    {
      "lat": "4°37'S",
      "lon": "55°27'E",
      "city": "Victoria"
    },
    {
      "lat": "48°26'N",
      "lon": "123°22'W",
      "city": "Victoria"
    },
    {
      "lat": "48°13'N",
      "lon": "16°22'E",
      "city": "Vienna"
    },
    {
      "lat": "17°58'N",
      "lon": "102°36'E",
      "city": "Vientiane"
    },
    {
      "lat": "42°14'N",
      "lon": "8°43'W",
      "city": "Vigo"
    },
    {
      "lat": "62°12'S",
      "lon": "58°58'W",
      "city": "Villa Las Estrellas"
    },
    {
      "lat": "54°41'N",
      "lon": "25°17'E",
      "city": "Vilnius"
    },
    {
      "lat": "36°51'N",
      "lon": "75°59'W",
      "city": "Virginia Beach"
    },
    {
      "lat": "17°41'N",
      "lon": "83°13'E",
      "city": "Visakhapatnam"
    },
    {
      "lat": "57°38'N",
      "lon": "18°17'E",
      "city": "Visby"
    },
    {
      "lat": "42°51'N",
      "lon": "2°41'W",
      "city": "Vitoria-Gasteiz"
    },
    {
      "lat": "20°19'S",
      "lon": "40°20'W",
      "city": "Vitória"
    },
    {
      "lat": "33°00'S",
      "lon": "71°31'W",
      "city": "Viña del Mar"
    },
    {
      "lat": "43°08'N",
      "lon": "131°54'E",
      "city": "Vladivostok"
    },
    {
      "lat": "48°42'N",
      "lon": "44°31'E",
      "city": "Volgograd"
    },
    {
      "lat": "59°13'N",
      "lon": "39°54'E",
      "city": "Vologda"
    },
    {
      "lat": "51°40'N",
      "lon": "39°13'E",
      "city": "Voronezh"
    },
    {
      "lat": "43°57'S",
      "lon": "176°33'E",
      "city": "Waitangi"
    },
    {
      "lat": "34°14'N",
      "lon": "135°10'E",
      "city": "Wakayama"
    },
    {
      "lat": "45°25'N",
      "lon": "141°40'E",
      "city": "Wakkanai"
    },
    {
      "lat": "52°14'N",
      "lon": "21°01'E",
      "city": "Warsaw"
    },
    {
      "lat": "38°54'N",
      "lon": "77°02'W",
      "city": "Washington"
    },
    {
      "lat": "41°17'S",
      "lon": "174°47'E",
      "city": "Wellington"
    },
    {
      "lat": "7°27'N",
      "lon": "151°51'E",
      "city": "Weno"
    },
    {
      "lat": "60°43'N",
      "lon": "135°03'W",
      "city": "Whitehorse"
    },
    {
      "lat": "37°41'N",
      "lon": "97°20'W",
      "city": "Wichita"
    },
    {
      "lat": "12°07'N",
      "lon": "68°56'W",
      "city": "Willemstad"
    },
    {
      "lat": "34°13'N",
      "lon": "77°55'W",
      "city": "Wilmington"
    },
    {
      "lat": "51°06'N",
      "lon": "1°30'E",
      "city": "Winchester"
    },
    {
      "lat": "22°34'S",
      "lon": "17°05'E",
      "city": "Windhoek"
    },
    {
      "lat": "42°17'N",
      "lon": "83°00'W",
      "city": "Windsor"
    },
    {
      "lat": "49°54'N",
      "lon": "97°08'W",
      "city": "Winnipeg"
    },
    {
      "lat": "34°26'S",
      "lon": "150°53'E",
      "city": "Wollongong"
    },
    {
      "lat": "39°09'N",
      "lon": "127°27'E",
      "city": "Wonsan"
    },
    {
      "lat": "30°35'N",
      "lon": "114°17'E",
      "city": "Wuhan"
    },
    {
      "lat": "34°16'N",
      "lon": "108°54'E",
      "city": "Xi'an"
    },
    {
      "lat": "36°38'N",
      "lon": "101°46'E",
      "city": "Xining"
    },
    {
      "lat": "62°02'N",
      "lon": "129°44'E",
      "city": "Yakutsk"
    },
    {
      "lat": "38°15'N",
      "lon": "140°20'E",
      "city": "Yamagata"
    },
    {
      "lat": "34°11'N",
      "lon": "131°28'E",
      "city": "Yamaguchi"
    },
    {
      "lat": "6°49'N",
      "lon": "5°17'W",
      "city": "Yamoussoukro"
    },
    {
      "lat": "16°48'N",
      "lon": "96°09'E",
      "city": "Yangon"
    },
    {
      "lat": "3°52'N",
      "lon": "11°31'E",
      "city": "Yaoundé"
    },
    {
      "lat": "0°33'S",
      "lon": "166°55'E",
      "city": "Yaren District"
    },
    {
      "lat": "43°50'N",
      "lon": "66°07'W",
      "city": "Yarmouth"
    },
    {
      "lat": "57°37'N",
      "lon": "39°51'E",
      "city": "Yaroslavl"
    },
    {
      "lat": "56°50'N",
      "lon": "60°35'E",
      "city": "Yekaterinburg"
    },
    {
      "lat": "62°27'N",
      "lon": "114°24'W",
      "city": "Yellowknife"
    },
    {
      "lat": "40°11'N",
      "lon": "44°31'E",
      "city": "Yerevan"
    },
    {
      "lat": "7°48'S",
      "lon": "110°22'E",
      "city": "Yogyakarta"
    },
    {
      "lat": "35°27'N",
      "lon": "139°38'E",
      "city": "Yokohama"
    },
    {
      "lat": "53°58'N",
      "lon": "1°05'W",
      "city": "York"
    },
    {
      "lat": "45°49'N",
      "lon": "15°59'E",
      "city": "Zagreb"
    },
    {
      "lat": "6°54'N",
      "lon": "122°04'E",
      "city": "Zamboanga City"
    },
    {
      "lat": "6°10'S",
      "lon": "39°12'E",
      "city": "Zanzibar City"
    },
    {
      "lat": "20°43'N",
      "lon": "103°24'W",
      "city": "Zapopan"
    },
    {
      "lat": "41°39'N",
      "lon": "0°53'W",
      "city": "Zaragoza"
    },
    {
      "lat": "34°46'N",
      "lon": "113°39'E",
      "city": "Zhengzhou"
    },
    {
      "lat": "47°22'N",
      "lon": "8°33'E",
      "city": "Zürich"
    },
    {
      "lat": "62°28'20″N",
      "lon": "6°09'17″E",
      "city": "Ålesund"
    },
    {
      "lat": "66°05'N",
      "lon": "23°08'W",
      "city": "Ísafjörður"
    },
    {
      "lat": "59°16'N",
      "lon": "15°12'E",
      "city": "Örebro"
    },
    {
      "lat": "63°17'N",
      "lon": "18°44'E",
      "city": "Örnsköldsvik"
    },
    {
      "lat": "63°11'N",
      "lon": "14°40'E",
      "city": "Östersund"
    },
    {
      "lat": "43°50'N",
      "lon": "87°36'E",
      "city": "Ürümqi"
    },
    {
      "lat": "33°14'N",
      "lon": "131°36'E",
      "city": "Ōita"
    },
    {
      "lat": "35°01'N",
      "lon": "135°51'E",
      "city": "Ōtsu"
    },
    {
      "lat": "44°45'N",
      "lon": "19°42'E",
      "city": "Šabac"
    }
  ]
}
